<?xml version="1.0" encoding="utf-8"?>
<!-- Generator: Adobe Illustrator 19.0.0, SVG Export Plug-In . SVG Version: 6.00 Build 0)  -->
<svg version="1.1" id="Layer_1" xmlns="http://www.w3.org/2000/svg" xmlns:xlink="http://www.w3.org/1999/xlink" x="0px" y="0px"
	 viewBox="-93 220.3 423.8 352.7" style="enable-background:new -93 220.3 423.8 352.7;" xml:space="preserve">
<style type="text/css">
	.st0{fill:#FFFFFF;}
	.st1{fill:none;stroke:#007BA2;stroke-width:1.269;stroke-linecap:round;stroke-linejoin:round;stroke-miterlimit:10;}
	.st2{fill:none;stroke:#007BA2;stroke-width:2.44;stroke-linecap:round;stroke-linejoin:round;stroke-miterlimit:10;}
</style>
<g>
	<path class="st0" d="M-39.3,345.2v6.5h-1.9v-6.5l-5-7.7h2.2l3.7,6l3.8-6h2.2C-34.3,337.5-39.3,345.2-39.3,345.2z M-31.4,342
		c2.2,0,4.5,1.5,4.5,4.9s-2.1,5.1-4.6,5.1c-2.6,0-4.6-1.8-4.6-5C-36.1,345.5-35.4,342-31.4,342z M-31.5,350.7c1.9,0,2.9-1.5,2.9-4
		c0-1.6-0.6-3.5-2.8-3.5c-3,0-3,3.2-3,3.8C-34.4,348.2-34,350.7-31.5,350.7z M-19,351.7v-1.4c-0.7,1-2,1.7-3.2,1.7
		c-0.3,0-1.8-0.1-2.5-1.2c-0.4-0.7-0.5-1.6-0.5-2.4v-6.1h1.6v5.4c0,1,0,1.4,0.2,1.9c0.2,0.4,0.7,0.9,1.7,0.9c0.4,0,1.6-0.1,2.2-1.1
		c0.5-0.7,0.5-1.5,0.5-2.3v-4.8h1.6v9.5H-19V351.7z M-13.4,337.6v1c0,1.4-0.2,2.9-0.8,4.3h-0.9c0.3-1,0.7-2.1,0.7-3.1h-0.9v-2.2
		C-15.3,337.6-13.4,337.6-13.4,337.6z M-9.6,342.3v1.7c0.2-0.4,0.5-0.8,0.9-1.1c0.4-0.3,1.1-0.8,2.3-0.8v1.7c-0.2,0-0.4-0.1-0.6-0.1
		c-1.1,0-2.1,0.6-2.5,1.8c-0.1,0.5-0.1,0.8-0.1,1.7v4.4h-1.6v-9.3C-11.2,342.3-9.6,342.3-9.6,342.3z M-4.2,347.4
		c0,1.5,0.8,3.4,3.1,3.4c1.7,0,2.3-1.3,2.5-2.2l1.6,0.2c-0.2,0.7-1.1,3.2-4.3,3.2c-2.3,0-4.6-1.4-4.6-5.1c0-3.6,2.6-4.9,4.6-4.9
		c2.1,0,4.3,1.4,4.3,5.1v0.3H-4.2z M1.2,346.1c0-1.6-1.1-2.9-2.7-2.9c-1.7,0-2.5,1.4-2.7,2.9C-4.2,346.1,1.2,346.1,1.2,346.1z
		 M15.1,345.7c0-0.9,0-2.5-2.1-2.5c-1.3,0-2,0.7-2,1.8v0.1L9.3,345c0-0.5,0.3-3.1,3.6-3.1c0.6,0,1.6,0.1,2.4,0.6
		c1.3,0.8,1.4,1.7,1.4,3.4v3.3c0,0.6,0,1.1,0.7,1.1c0.2,0,0.3,0,0.5-0.1v1.3c-0.5,0.2-0.8,0.2-1,0.2c-0.1,0-0.7,0-1-0.2
		c-0.4-0.3-0.6-0.9-0.6-1.2c-0.4,0.5-1.4,1.5-3.2,1.5c-1.9,0-3.2-1.1-3.2-2.7c0-0.4,0.1-1.4,1-2c1-0.7,2.6-1,3.8-1.1l1.4-0.1
		L15.1,345.7L15.1,345.7z M11.7,347.8c-0.3,0.1-1.2,0.5-1.2,1.4c0,0.7,0.5,1.4,1.8,1.4c0.9,0,2.8-0.4,2.8-2.8v-0.7
		C14.4,347.2,12.5,347.5,11.7,347.8L11.7,347.8z M35.2,351.7v-6.3c0-1.7-1.1-1.9-1.7-1.9c-0.9,0-2,0.7-2.3,1.6
		c-0.1,0.3-0.1,0.7-0.1,1.4v5.3h-1.6v-6.2c0-1.9-1.2-2.1-1.7-2.1c-0.8,0-1.9,0.6-2.2,1.4c-0.1,0.3-0.1,0.6-0.1,1.2v5.6H24v-9.4h1.5
		v1.3c0.8-0.9,1.7-1.6,2.8-1.6c0.3,0,1.3,0.1,2,0.9l0.6,0.9c0.6-0.5,1.5-1.7,3.2-1.7c1.2,0,1.9,0.7,2.2,1c0.6,0.7,0.6,1.6,0.6,2.5
		v6.2h-1.7L35.2,351.7z M44.5,345.7c0-0.9,0-2.5-2.1-2.5c-1.3,0-2,0.7-2,1.8v0.1l-1.7-0.1c0-0.5,0.3-3.1,3.6-3.1
		c0.6,0,1.6,0.1,2.4,0.6c1.3,0.8,1.4,1.7,1.4,3.4v3.3c0,0.6,0,1.1,0.7,1.1c0.2,0,0.3,0,0.5-0.1v1.3c-0.5,0.2-0.8,0.2-1,0.2
		c-0.1,0-0.7,0-1-0.2c-0.4-0.3-0.6-0.9-0.6-1.2c-0.4,0.5-1.4,1.5-3.2,1.5c-1.9,0-3.2-1.1-3.2-2.7c0-0.4,0.1-1.4,1-2
		c1-0.7,2.6-1,3.8-1.1l1.4-0.1L44.5,345.7L44.5,345.7z M41.2,347.8c-0.3,0.1-1.2,0.5-1.2,1.4c0,0.7,0.5,1.4,1.8,1.4
		c0.9,0,2.8-0.4,2.8-2.8v-0.7C43.8,347.2,41.9,347.5,41.2,347.8L41.2,347.8z M49.6,348.4c0,0.6,0.1,1.2,0.5,1.7
		c0.6,0.6,1.3,0.7,2.1,0.7s2.2-0.2,2.2-1.6c0-1.1-1.1-1.3-2-1.5l-0.9-0.2c-2.6-0.5-3.4-1.4-3.4-2.7c0-2.1,2-2.8,3.7-2.8
		c2,0,3.1,1,3.5,1.7c0.4,0.6,0.5,1.2,0.5,1.4l-1.7,0.2c0-0.5,0-0.7-0.1-0.9c-0.2-0.5-1-1.2-2.4-1.2c-1.3,0-1.9,0.8-1.9,1.4
		c0,0.8,0.8,1.1,2.3,1.5l0.9,0.2c1.8,0.4,3.1,1,3.1,2.7c0,1.8-1.7,3-4,3c-3,0-4.1-1.5-4.4-3.4L49.6,348.4L49.6,348.4z M59.7,349.7
		c0,0.7,0.2,0.9,0.7,0.9c0.2,0,0.6-0.1,1-0.2v1.3c-0.1,0-0.9,0.2-1.5,0.2c-1.6,0-1.8-0.6-1.8-1.7v-6.6h-1.5v-1.3h1.5v-3h1.6v3h1.7
		v1.3h-1.7V349.7L59.7,349.7z M64.1,347.4c0,1.5,0.8,3.4,3.1,3.4c1.7,0,2.3-1.3,2.5-2.2l1.6,0.2c-0.2,0.7-1.1,3.2-4.3,3.2
		c-2.3,0-4.6-1.4-4.6-5.1c0-3.6,2.6-4.9,4.6-4.9c2.1,0,4.3,1.4,4.3,5.1v0.3H64.1L64.1,347.4z M69.5,346.1c0-1.6-1.1-2.9-2.7-2.9
		c-1.7,0-2.5,1.4-2.7,2.9H69.5z M74.5,342.3v1.7c0.2-0.4,0.5-0.8,0.9-1.1c0.4-0.3,1.1-0.8,2.3-0.8v1.7c-0.2,0-0.4-0.1-0.6-0.1
		c-1.1,0-2.1,0.6-2.5,1.8c-0.1,0.5-0.1,0.8-0.1,1.7v4.4h-1.6v-9.3H74.5L74.5,342.3z M87.8,342c2.2,0,4.5,1.5,4.5,4.9
		s-2.1,5.1-4.6,5.1c-2.6,0-4.6-1.8-4.6-5C83.1,345.5,83.7,342,87.8,342L87.8,342z M87.7,350.7c1.9,0,2.9-1.5,2.9-4
		c0-1.6-0.6-3.5-2.8-3.5c-3,0-3,3.2-3,3.8C84.8,348.2,85.2,350.7,87.7,350.7L87.7,350.7z M97.8,342.3v1.3H96v8.1h-1.6v-8.1h-1.6
		v-1.3h1.6v-0.8c0-1.3,0-1.9,0.2-2.5c0.5-1.3,1.9-1.3,2.2-1.3c0.2,0,0.6,0,1.2,0.1v1.3c-0.1,0-0.5-0.1-0.9-0.1
		c-0.8,0-1.2,0.5-1.2,1.5v1.8H97.8L97.8,342.3z M105.4,342.3v1.7c0.2-0.4,0.5-0.8,0.9-1.1c0.4-0.3,1.1-0.8,2.3-0.8v1.7
		c-0.2,0-0.4-0.1-0.6-0.1c-1.1,0-2.1,0.6-2.5,1.8c-0.1,0.5-0.1,0.8-0.1,1.7v4.4h-1.6v-9.3H105.4L105.4,342.3z M110.8,347.4
		c0,1.5,0.8,3.4,3.1,3.4c1.7,0,2.3-1.3,2.5-2.2l1.6,0.2c-0.2,0.7-1.1,3.2-4.3,3.2c-2.3,0-4.6-1.4-4.6-5.1c0-3.6,2.6-4.9,4.6-4.9
		c2.1,0,4.3,1.4,4.3,5.1v0.3H110.8L110.8,347.4z M116.2,346.1c0-1.6-1.1-2.9-2.7-2.9c-1.7,0-2.5,1.4-2.7,2.9H116.2z M120.7,348.4
		c0,0.6,0.1,1.2,0.5,1.7c0.6,0.6,1.3,0.7,2.1,0.7s2.2-0.2,2.2-1.6c0-1.1-1.1-1.3-2-1.5l-0.9-0.2c-2.6-0.5-3.4-1.4-3.4-2.7
		c0-2.1,2-2.8,3.7-2.8c2,0,3.1,1,3.5,1.7c0.4,0.6,0.5,1.2,0.5,1.4l-1.7,0.2c0-0.5,0-0.7-0.1-0.9c-0.2-0.5-1-1.2-2.4-1.2
		c-1.3,0-1.9,0.8-1.9,1.4c0,0.8,0.8,1.1,2.3,1.5l0.9,0.2c1.8,0.4,3.1,1,3.1,2.7c0,1.8-1.7,3-4,3c-3,0-4.1-1.5-4.4-3.4L120.7,348.4
		L120.7,348.4z M129.9,347.4c0,1.5,0.8,3.4,3.1,3.4c1.7,0,2.3-1.3,2.5-2.2l1.6,0.2c-0.2,0.7-1.1,3.2-4.3,3.2c-2.3,0-4.6-1.4-4.6-5.1
		c0-3.6,2.6-4.9,4.6-4.9c2.1,0,4.3,1.4,4.3,5.1v0.3H129.9L129.9,347.4z M135.3,346.1c0-1.6-1.1-2.9-2.7-2.9c-1.7,0-2.5,1.4-2.7,2.9
		H135.3z M144.2,345.7c0-0.9,0-2.5-2.1-2.5c-1.3,0-2,0.7-2,1.8v0.1l-1.7-0.1c0-0.5,0.3-3.1,3.6-3.1c0.6,0,1.6,0.1,2.4,0.6
		c1.3,0.8,1.4,1.7,1.4,3.4v3.3c0,0.6,0,1.1,0.7,1.1c0.2,0,0.3,0,0.5-0.1v1.3c-0.5,0.2-0.8,0.2-1,0.2c-0.1,0-0.7,0-1-0.2
		c-0.4-0.3-0.6-0.9-0.6-1.2c-0.4,0.5-1.4,1.5-3.2,1.5c-1.9,0-3.2-1.1-3.2-2.7c0-0.4,0.1-1.4,1-2c1-0.7,2.6-1,3.8-1.1l1.4-0.1
		L144.2,345.7L144.2,345.7z M140.9,347.8c-0.3,0.1-1.2,0.5-1.2,1.4c0,0.7,0.5,1.4,1.8,1.4c0.9,0,2.8-0.4,2.8-2.8v-0.7
		C143.5,347.2,141.6,347.5,140.9,347.8L140.9,347.8z M149.7,342.3v1.7c0.2-0.4,0.5-0.8,0.9-1.1c0.4-0.3,1.1-0.8,2.3-0.8v1.7
		c-0.2,0-0.4-0.1-0.6-0.1c-1.1,0-2.1,0.6-2.5,1.8c-0.1,0.5-0.1,0.8-0.1,1.7v4.4h-1.6v-9.3H149.7L149.7,342.3z M162.5,348.3
		c-0.5,2.7-2.3,3.7-4.5,3.7c-3,0-4.7-2.1-4.7-5c0-2.8,1.5-5.1,4.6-5.1c2.8,0,4.1,1.8,4.4,3.2l-1.8,0.2c-0.2-1.4-1.2-2.2-2.6-2.2
		c-1.4,0-2.8,1-2.8,3.8c0,2.2,1,3.8,3,3.8c1.8,0,2.5-1.1,2.7-2.6L162.5,348.3L162.5,348.3z M169.7,351.7v-5.5c0-0.5,0-1.1-0.2-1.6
		c-0.3-0.8-1-1.2-1.9-1.2c-0.4,0-1.5,0.1-2.1,1.2c-0.4,0.8-0.4,1.6-0.4,2.5v4.7h-1.6v-14.2h1.6v5.7c1.1-1.2,2.2-1.3,2.9-1.3
		c2.9,0,3.4,2,3.4,3.6v6.1H169.7L169.7,351.7z M178,346.5V345h5.6v1.5H178z M191.4,347.4c0,1.5,0.8,3.4,3.1,3.4
		c1.7,0,2.3-1.3,2.5-2.2l1.6,0.2c-0.2,0.7-1.1,3.2-4.3,3.2c-2.3,0-4.6-1.4-4.6-5.1c0-3.6,2.6-4.9,4.6-4.9c2.1,0,4.3,1.4,4.3,5.1v0.3
		H191.4z M196.9,346.1c0-1.6-1.1-2.9-2.7-2.9c-1.7,0-2.5,1.4-2.7,2.9H196.9L196.9,346.1z M204,351.7h-1.4l-3.5-9.5h1.7l2.5,7.2
		l2.5-7.2h1.6L204,351.7L204,351.7z M209.6,347.4c0,1.5,0.8,3.4,3.1,3.4c1.7,0,2.3-1.3,2.5-2.2l1.6,0.2c-0.2,0.7-1.1,3.2-4.3,3.2
		c-2.3,0-4.6-1.4-4.6-5.1c0-3.6,2.6-4.9,4.6-4.9c2.1,0,4.3,1.4,4.3,5.1v0.3H209.6z M215.1,346.1c0-1.6-1.1-2.9-2.7-2.9
		c-1.7,0-2.5,1.4-2.7,2.9H215.1L215.1,346.1z M220,342.3v1.7c0.2-0.4,0.5-0.8,0.9-1.1c0.4-0.3,1.1-0.8,2.3-0.8v1.7
		c-0.2,0-0.4-0.1-0.6-0.1c-1.1,0-2.1,0.6-2.5,1.8c-0.1,0.5-0.1,0.8-0.1,1.7v4.4h-1.6v-9.3H220L220,342.3z M232.9,351.7h-1.4
		l-3.5-9.4h1.7l2.5,7.2l2.5-7.2h1.6L232.9,351.7L232.9,351.7z M237.4,339.4v-1.8h1.5v1.8H237.4z M237.4,351.7v-9.4h1.5v9.5h-1.5
		V351.7z M249.7,351.9c0,3.5-2.2,4.4-4.4,4.4s-4.1-1.1-4.3-3.5h1.8c0,1.5,1.1,2.2,2.6,2.2c2,0,2.6-1.1,2.6-2.8v-1.9
		c-1.1,1.5-2.3,1.7-3.1,1.7c-2.4,0-4.4-1.8-4.4-5c0-2.2,1-5.1,4.4-5.1c1.2,0,2.2,0.5,3.1,1.6v-1.2h1.7L249.7,351.9L249.7,351.9z
		 M245.1,343.4c-1.6,0-2.9,1.2-2.9,3.6c0,2,0.9,3.6,3,3.6s2.9-1.7,2.9-3.7C248.1,344.7,246.9,343.4,245.1,343.4z M251.9,339.4v-1.8
		h1.5v1.8H251.9z M251.9,351.7v-9.4h1.5v9.5h-1.5V351.7z M255.5,351.7v-14.2h1.5v14.2H255.5z M264.8,345.7c0-0.9,0-2.5-2.1-2.5
		c-1.3,0-2,0.7-2,1.8v0.1L259,345c0-0.5,0.3-3.1,3.6-3.1c0.6,0,1.6,0.1,2.4,0.6c1.3,0.8,1.4,1.7,1.4,3.4v3.3c0,0.6,0,1.1,0.7,1.1
		c0.2,0,0.3,0,0.5-0.1v1.3c-0.5,0.2-0.8,0.2-1,0.2c-0.1,0-0.7,0-1-0.2c-0.4-0.3-0.6-0.9-0.6-1.2c-0.4,0.5-1.4,1.5-3.2,1.5
		c-1.9,0-3.2-1.1-3.2-2.7c0-0.4,0.1-1.4,1-2c1-0.7,2.6-1,3.8-1.1l1.4-0.1L264.8,345.7L264.8,345.7z M261.4,347.8
		c-0.3,0.1-1.2,0.5-1.2,1.4c0,0.7,0.5,1.4,1.8,1.4c0.9,0,2.8-0.4,2.8-2.8v-0.7C264.1,347.2,262.2,347.5,261.4,347.8L261.4,347.8z
		 M274.9,351.7v-6.2c0-1.5-1-2-2.1-2c-1.3,0-2.5,1-2.5,2.6v5.6h-1.6v-9.4h1.6v1.4c0.4-0.7,1.3-1.7,3-1.7c0.4,0,1.8,0.1,2.7,1.3
		c0.5,0.8,0.6,1.6,0.6,2.5v6h-1.7V351.7z M280.8,349.7c0,0.7,0.2,0.9,0.7,0.9c0.2,0,0.6-0.1,1-0.2v1.3c-0.1,0-0.9,0.2-1.5,0.2
		c-1.6,0-1.8-0.6-1.8-1.7v-6.6h-1.5v-1.3h1.5v-3h1.6v3h1.7v1.3h-1.7L280.8,349.7L280.8,349.7z M-28,363.5v-1.8h1.5v1.8H-28z
		 M-28,375.8v-9.5h1.5v9.5H-28z M-18.1,375.8v-6.2c0-1.5-1-2-2.1-2c-1.3,0-2.5,1-2.5,2.6v5.6h-1.6v-9.5h1.6v1.4
		c0.4-0.7,1.3-1.7,3-1.7c0.4,0,1.8,0.1,2.7,1.3c0.5,0.8,0.6,1.6,0.6,2.5v6H-18.1z M-2.3,366.4l-4,11.2c-0.8,2.1-1.3,2.9-2.9,2.9
		c-0.3,0-0.8,0-1.4-0.2v-1.4c0.2,0.1,0.6,0.2,1.1,0.2c0.9,0,1.3-0.4,1.8-2l0.4-1.2l-3.2-9.5h1.7l2.4,7.5l2.5-7.5H-2.3z M3.1,366.1
		c2.2,0,4.5,1.5,4.5,4.9c0,3.4-2.1,5.1-4.6,5.1c-2.6,0-4.6-1.8-4.6-5C-1.7,369.6-1,366.1,3.1,366.1z M2.9,374.8c1.9,0,2.9-1.5,2.9-4
		c0-1.6-0.6-3.5-2.8-3.5c-3,0-3,3.2-3,3.8C0,372.3,0.4,374.8,2.9,374.8z M15.4,375.8v-1.4c-0.7,1-2,1.7-3.2,1.7
		c-0.3,0-1.8-0.1-2.5-1.2c-0.4-0.7-0.5-1.6-0.5-2.4v-6.1h1.6v5.4c0,1,0,1.4,0.2,1.9c0.2,0.4,0.7,0.9,1.7,0.9c0.4,0,1.6-0.1,2.2-1.1
		c0.5-0.7,0.5-1.5,0.5-2.3v-4.8H17v9.5L15.4,375.8L15.4,375.8z M20.7,366.4v1.7c0.2-0.4,0.5-0.8,0.9-1.1c0.4-0.3,1.1-0.8,2.3-0.8
		v1.7c-0.2,0-0.4-0.1-0.6-0.1c-1.1,0-2.1,0.6-2.5,1.8c-0.1,0.5-0.1,0.8-0.1,1.7v4.4h-1.6v-9.5h1.6L20.7,366.4z M41.1,375.8v-6.3
		c0-1.7-1.1-1.9-1.7-1.9c-0.9,0-2,0.7-2.3,1.6c-0.1,0.3-0.1,0.7-0.1,1.4v5.3h-1.6v-6.2c0-1.9-1.2-2.1-1.7-2.1
		c-0.8,0-1.9,0.6-2.2,1.4c-0.1,0.3-0.1,0.6-0.1,1.2v5.6h-1.5v-9.5h1.5v1.3c0.8-0.9,1.7-1.6,2.8-1.6c0.3,0,1.3,0.1,2,0.9l0.6,0.9
		c0.6-0.5,1.5-1.7,3.2-1.7c1.2,0,1.9,0.7,2.2,1c0.6,0.7,0.6,1.6,0.6,2.5v6.2H41.1L41.1,375.8z M44.9,363.5v-1.8h1.5v1.8H44.9z
		 M44.9,375.8v-9.5h1.5v9.5H44.9z M49.6,372.5c0,0.6,0.1,1.2,0.5,1.7c0.6,0.6,1.3,0.7,2.1,0.7s2.2-0.2,2.2-1.6c0-1.1-1.1-1.3-2-1.5
		l-0.9-0.2c-2.6-0.5-3.4-1.4-3.4-2.7c0-2.1,2-2.8,3.7-2.8c2,0,3.1,1,3.5,1.7c0.4,0.6,0.5,1.2,0.5,1.4l-1.7,0.2c0-0.5,0-0.7-0.1-0.9
		c-0.2-0.5-1-1.2-2.4-1.2c-1.3,0-1.9,0.8-1.9,1.4c0,0.8,0.8,1.1,2.3,1.5l0.9,0.2c1.8,0.4,3.1,1,3.1,2.7c0,1.8-1.7,3-4,3
		c-3,0-4.1-1.5-4.4-3.4L49.6,372.5L49.6,372.5z M58.7,372.5c0,0.6,0.1,1.2,0.5,1.7c0.6,0.6,1.3,0.7,2.1,0.7s2.2-0.2,2.2-1.6
		c0-1.1-1.1-1.3-2-1.5l-0.9-0.2c-2.6-0.5-3.4-1.4-3.4-2.7c0-2.1,2-2.8,3.7-2.8c2,0,3.1,1,3.5,1.7c0.4,0.6,0.5,1.2,0.5,1.4l-1.7,0.2
		c0-0.5,0-0.7-0.1-0.9c-0.2-0.5-1-1.2-2.4-1.2c-1.3,0-1.9,0.8-1.9,1.4c0,0.8,0.8,1.1,2.3,1.5l0.9,0.2c1.8,0.4,3.1,1,3.1,2.7
		c0,1.8-1.7,3-4,3c-3,0-4.1-1.5-4.4-3.4L58.7,372.5L58.7,372.5z M66.8,363.5v-1.8h1.5v1.8H66.8z M66.8,375.8v-9.5h1.5v9.5H66.8z
		 M74.6,366.1c2.2,0,4.5,1.5,4.5,4.9c0,3.4-2.1,5.1-4.6,5.1c-2.6,0-4.6-1.8-4.6-5C69.9,369.6,70.5,366.1,74.6,366.1L74.6,366.1z
		 M74.5,374.8c1.9,0,2.9-1.5,2.9-4c0-1.6-0.6-3.5-2.8-3.5c-3,0-3,3.2-3,3.8C71.6,372.3,71.9,374.8,74.5,374.8L74.5,374.8z M87,375.8
		v-6.2c0-1.5-1-2-2.1-2c-1.3,0-2.5,1-2.5,2.6v5.6h-1.6v-9.5h1.6v1.4c0.4-0.7,1.3-1.7,3-1.7c0.4,0,1.8,0.1,2.7,1.3
		c0.5,0.8,0.6,1.6,0.6,2.5v6H87z M97.8,373.8c0,0.7,0.2,0.9,0.7,0.9c0.2,0,0.6-0.1,1-0.2v1.3c-0.1,0-0.9,0.2-1.5,0.2
		c-1.6,0-1.8-0.6-1.8-1.7v-6.6h-1.5v-1.3h1.5v-3h1.6v3h1.7v1.3h-1.7V373.8z M105.3,366.1c2.2,0,4.5,1.5,4.5,4.9
		c0,3.4-2.1,5.1-4.6,5.1c-2.6,0-4.6-1.8-4.6-5C100.5,369.6,101.2,366.1,105.3,366.1L105.3,366.1z M105.1,374.8c1.9,0,2.9-1.5,2.9-4
		c0-1.6-0.6-3.5-2.8-3.5c-3,0-3,3.2-3,3.8C102.2,372.3,102.6,374.8,105.1,374.8L105.1,374.8z M120.1,366.4v1.3h-1.8v8.1h-1.6v-8.1
		h-1.6v-1.3h1.6v-0.8c0-1.3,0-1.9,0.2-2.5c0.5-1.3,1.9-1.3,2.2-1.3c0.2,0,0.6,0,1.2,0.1v1.3c-0.1,0-0.5-0.1-0.9-0.1
		c-0.8,0-1.2,0.5-1.2,1.5v1.8H120.1L120.1,366.4z M121.8,363.5v-1.8h1.5v1.8H121.8z M121.8,375.8v-9.5h1.5v9.5H121.8L121.8,375.8z
		 M131.6,375.8v-6.2c0-1.5-1-2-2.1-2c-1.3,0-2.5,1-2.5,2.6v5.6h-1.6v-9.5h1.6v1.4c0.4-0.7,1.3-1.7,3-1.7c0.4,0,1.8,0.1,2.7,1.3
		c0.5,0.8,0.6,1.6,0.6,2.5v6H131.6z M142.4,375.8v-1.2c-0.5,0.6-1.4,1.5-3.2,1.5c-2.8,0-4.4-2.1-4.4-5.1c0-3.7,2.4-5,4.3-5
		c1.7,0,2.9,1,3.3,1.5v-6h1.6v14.2h-1.6L142.4,375.8z M139.5,374.7c1.4,0,2.9-0.8,2.9-3.7c0-1.9-1.1-3.4-2.9-3.4c-2.2,0-3,1.8-3,3.6
		C136.6,372.8,137.2,374.7,139.5,374.7L139.5,374.7z M153.3,373.8c0,0.7,0.2,0.9,0.7,0.9c0.2,0,0.6-0.1,1-0.2v1.3
		c-0.1,0-0.9,0.2-1.5,0.2c-1.6,0-1.8-0.6-1.8-1.7v-6.6h-1.5v-1.3h1.5v-3h1.6v3h1.7v1.3h-1.7V373.8z M162.7,375.8v-5.5
		c0-0.5,0-1.1-0.2-1.6c-0.3-0.8-1-1.2-1.9-1.2c-0.4,0-1.5,0.1-2.1,1.2c-0.4,0.8-0.4,1.6-0.4,2.5v4.7h-1.6v-14.2h1.6v5.7
		c1.1-1.2,2.2-1.3,2.9-1.3c2.9,0,3.4,2,3.4,3.6v6.1H162.7z M167.6,371.5c0,1.5,0.8,3.4,3.1,3.4c1.7,0,2.3-1.3,2.5-2.2l1.6,0.2
		c-0.2,0.7-1.1,3.2-4.3,3.2c-2.3,0-4.6-1.4-4.6-5.1c0-3.6,2.6-4.9,4.6-4.9c2.1,0,4.3,1.4,4.3,5.1v0.3H167.6z M173,370.2
		c0-1.6-1.1-2.9-2.7-2.9c-1.7,0-2.5,1.4-2.7,2.9H173L173,370.2z M182.9,361.6v6c0.7-1.1,2-1.6,3.3-1.6c2.4,0,4.4,1.8,4.4,5
		c0,2.8-1.4,5-4.4,5c-1.8,0-2.8-0.9-3.2-1.5v1.2h-1.6v-14.2L182.9,361.6L182.9,361.6z M185.8,374.7c1.2,0,2.9-0.8,2.9-3.8
		c0-2.2-1.4-3.4-2.9-3.4c-1.3,0-3,0.8-3,3.6C182.8,372.7,183.6,374.7,185.8,374.7L185.8,374.7z M193.2,371.5c0,1.5,0.8,3.4,3.1,3.4
		c1.7,0,2.3-1.3,2.5-2.2l1.6,0.2c-0.2,0.7-1.1,3.2-4.3,3.2c-2.3,0-4.6-1.4-4.6-5.1c0-3.6,2.6-4.9,4.6-4.9c2.1,0,4.3,1.4,4.3,5.1v0.3
		H193.2z M198.7,370.2c0-1.6-1.1-2.9-2.7-2.9c-1.7,0-2.5,1.4-2.7,2.9H198.7L198.7,370.2z M203.1,372.5c0,0.6,0.1,1.2,0.5,1.7
		c0.6,0.6,1.3,0.7,2.1,0.7s2.2-0.2,2.2-1.6c0-1.1-1.1-1.3-2-1.5l-0.9-0.2c-2.6-0.5-3.4-1.4-3.4-2.7c0-2.1,2-2.8,3.7-2.8
		c2,0,3.1,1,3.5,1.7c0.4,0.6,0.5,1.2,0.5,1.4l-1.7,0.2c0-0.5,0-0.7-0.1-0.9c-0.2-0.5-1-1.2-2.4-1.2c-1.3,0-1.9,0.8-1.9,1.4
		c0,0.8,0.8,1.1,2.3,1.5l0.9,0.2c1.8,0.4,3.1,1,3.1,2.7c0,1.8-1.7,3-4,3c-3,0-4.1-1.5-4.4-3.4L203.1,372.5L203.1,372.5z
		 M213.3,373.8c0,0.7,0.2,0.9,0.7,0.9c0.2,0,0.6-0.1,1-0.2v1.3c-0.1,0-0.9,0.2-1.5,0.2c-1.6,0-1.8-0.6-1.8-1.7v-6.6h-1.5v-1.3h1.5
		v-3h1.6v3h1.7v1.3h-1.7L213.3,373.8L213.3,373.8z M225.2,375.8h-1.4l-3.5-9.5h1.7l2.5,7.2l2.5-7.2h1.6L225.2,375.8L225.2,375.8z
		 M235.3,369.8c0-0.9,0-2.5-2.1-2.5c-1.3,0-2,0.7-2,1.8v0.1l-1.7-0.1c0-0.5,0.3-3.1,3.6-3.1c0.6,0,1.6,0.1,2.4,0.6
		c1.3,0.8,1.4,1.7,1.4,3.4v3.3c0,0.6,0,1.1,0.7,1.1c0.2,0,0.3,0,0.5-0.1v1.3c-0.5,0.2-0.8,0.2-1,0.2c-0.1,0-0.7,0-1-0.2
		c-0.4-0.3-0.6-0.9-0.6-1.2c-0.4,0.5-1.4,1.5-3.2,1.5c-1.9,0-3.2-1.1-3.2-2.7c0-0.4,0.1-1.4,1-2c1-0.7,2.6-1,3.8-1.1l1.4-0.1
		L235.3,369.8L235.3,369.8z M231.9,371.9c-0.3,0.1-1.2,0.5-1.2,1.4c0,0.7,0.5,1.4,1.8,1.4c0.9,0,2.8-0.4,2.8-2.8v-0.7
		C234.6,371.3,232.7,371.6,231.9,371.9L231.9,371.9z M239.2,375.8v-14.2h1.5v14.2H239.2z M249.1,375.8v-1.4c-0.7,1-2,1.7-3.2,1.7
		c-0.3,0-1.8-0.1-2.5-1.2c-0.4-0.7-0.5-1.6-0.5-2.4v-6.1h1.6v5.4c0,1,0,1.4,0.2,1.9c0.2,0.4,0.7,0.9,1.7,0.9c0.4,0,1.6-0.1,2.2-1.1
		c0.5-0.7,0.5-1.5,0.5-2.3v-4.8h1.6v9.5L249.1,375.8L249.1,375.8z M254,371.5c0,1.5,0.8,3.4,3.1,3.4c1.7,0,2.3-1.3,2.5-2.2l1.6,0.2
		c-0.2,0.7-1.1,3.2-4.3,3.2c-2.3,0-4.6-1.4-4.6-5.1c0-3.6,2.6-4.9,4.6-4.9c2.1,0,4.3,1.4,4.3,5.1v0.3H254z M259.5,370.2
		c0-1.6-1.1-2.9-2.7-2.9c-1.7,0-2.5,1.4-2.7,2.9H259.5L259.5,370.2z M262.8,375.8v-2.3h2v2.3H262.8z M-17.2,393.4v6.5h-1.9v-6.5
		l-5-7.7h2.2l3.7,6l3.8-6h2.2C-12.2,385.7-17.2,393.4-17.2,393.4z M-9.2,390.1c2.2,0,4.5,1.5,4.5,4.9c0,3.4-2.1,5.1-4.6,5.1
		c-2.6,0-4.6-1.8-4.6-5C-14,393.6-13.3,390.1-9.2,390.1z M-9.4,398.9c1.9,0,2.9-1.5,2.9-4c0-1.6-0.6-3.5-2.8-3.5c-3,0-3,3.2-3,3.8
		C-12.3,396.4-11.9,398.9-9.4,398.9z M3.1,399.9v-1.4c-0.7,1-2,1.7-3.2,1.7c-0.3,0-1.8-0.1-2.5-1.2c-0.4-0.7-0.5-1.6-0.5-2.4v-6.1
		h1.6v5.4c0,1,0,1.4,0.2,1.9c0.2,0.4,0.7,0.9,1.7,0.9c0.4,0,1.6-0.1,2.2-1.1c0.5-0.7,0.5-1.5,0.5-2.3v-4.8h1.6v9.5L3.1,399.9
		L3.1,399.9z M20.4,396.5c-0.5,2.7-2.3,3.7-4.5,3.7c-3,0-4.7-2.1-4.7-5c0-2.8,1.5-5.1,4.6-5.1c2.8,0,4.1,1.8,4.4,3.2l-1.8,0.2
		c-0.2-1.4-1.2-2.2-2.6-2.2s-2.8,1-2.8,3.8c0,2.2,1,3.8,3,3.8c1.8,0,2.5-1.1,2.7-2.6L20.4,396.5L20.4,396.5z M27.3,393.9
		c0-0.9,0-2.5-2.1-2.5c-1.3,0-2,0.7-2,1.8v0.1l-1.7-0.1c0-0.5,0.3-3.1,3.6-3.1c0.6,0,1.6,0.1,2.4,0.6c1.3,0.8,1.4,1.7,1.4,3.4v3.3
		c0,0.6,0,1.1,0.7,1.1c0.2,0,0.3,0,0.5-0.1v1.3c-0.5,0.2-0.8,0.2-1,0.2c-0.1,0-0.7,0-1-0.2c-0.4-0.3-0.6-0.9-0.6-1.2
		c-0.4,0.5-1.4,1.5-3.2,1.5c-1.9,0-3.2-1.1-3.2-2.7c0-0.4,0.1-1.4,1-2c1-0.7,2.6-1,3.8-1.1l1.4-0.1L27.3,393.9L27.3,393.9z M24,396
		c-0.3,0.1-1.2,0.5-1.2,1.4c0,0.7,0.5,1.4,1.8,1.4c0.9,0,2.8-0.4,2.8-2.8v-0.7C26.6,395.4,24.7,395.6,24,396L24,396z M32.8,390.4
		v1.7c0.2-0.4,0.5-0.8,0.9-1.1c0.4-0.3,1.1-0.8,2.3-0.8v1.7c-0.2,0-0.4-0.1-0.6-0.1c-1.1,0-2.1,0.6-2.5,1.8
		c-0.1,0.5-0.1,0.8-0.1,1.7v4.4h-1.6v-9.5h1.6L32.8,390.4z M38.2,395.6c0,1.5,0.8,3.4,3.1,3.4c1.7,0,2.3-1.3,2.5-2.2l1.6,0.2
		c-0.2,0.7-1.1,3.2-4.3,3.2c-2.3,0-4.6-1.4-4.6-5.1c0-3.6,2.6-4.9,4.6-4.9c2.1,0,4.3,1.4,4.3,5.1v0.3H38.2L38.2,395.6z M43.7,394.3
		c0-1.6-1.1-2.9-2.7-2.9c-1.7,0-2.5,1.4-2.7,2.9H43.7z M50.8,390.4v1.3H49v8.1h-1.6v-8.1h-1.6v-1.3h1.6v-0.8c0-1.3,0-1.9,0.2-2.5
		c0.5-1.3,1.9-1.3,2.2-1.3c0.2,0,0.6,0,1.2,0.1v1.3c-0.1,0-0.5-0.1-0.9-0.1c-0.8,0-1.2,0.5-1.2,1.5v1.8H50.8L50.8,390.4z
		 M58.1,399.9v-1.4c-0.7,1-2,1.7-3.2,1.7c-0.3,0-1.8-0.1-2.5-1.2c-0.4-0.7-0.5-1.6-0.5-2.4v-6.1h1.6v5.4c0,1,0,1.4,0.2,1.9
		c0.2,0.4,0.7,0.9,1.7,0.9c0.4,0,1.6-0.1,2.2-1.1c0.5-0.7,0.5-1.5,0.5-2.3v-4.8h1.6v9.5L58.1,399.9L58.1,399.9z M61.9,399.9v-14.2
		h1.5v14.2H61.9z M65.6,399.9v-14.2h1.5v14.2H65.6z M76.4,390.4l-4,11.2c-0.8,2.1-1.3,2.9-2.9,2.9c-0.3,0-0.8,0-1.4-0.2v-1.4
		c0.2,0.1,0.6,0.2,1.1,0.2c0.9,0,1.3-0.4,1.8-2l0.4-1.2l-3.2-9.5h1.7l2.4,7.5l2.5-7.5H76.4L76.4,390.4z M92.1,399.9h-1.4l-2.3-7
		l-2.3,7h-1.5l-3.3-9.5H83l2.4,7l2.3-7h1.4l2.2,7l2.5-7h1.7L92.1,399.9L92.1,399.9z M97.7,395.6c0,1.5,0.8,3.4,3.1,3.4
		c1.7,0,2.3-1.3,2.5-2.2l1.6,0.2c-0.2,0.7-1.1,3.2-4.3,3.2c-2.3,0-4.6-1.4-4.6-5.1c0-3.6,2.6-4.9,4.6-4.9c2.1,0,4.3,1.4,4.3,5.1v0.3
		H97.7L97.7,395.6z M103.2,394.3c0-1.6-1.1-2.9-2.7-2.9c-1.7,0-2.5,1.4-2.7,2.9H103.2z M106.6,387.6v-1.8h1.5v1.8H106.6z
		 M106.6,399.9v-9.5h1.5v9.5H106.6z M118.8,400.1c0,3.5-2.2,4.4-4.4,4.4s-4.1-1.1-4.3-3.5h1.8c0,1.5,1.1,2.2,2.6,2.2
		c2,0,2.6-1.1,2.6-2.8v-1.8c-1.1,1.5-2.3,1.7-3.1,1.7c-2.4,0-4.4-1.8-4.4-5c0-2.2,1-5.1,4.4-5.1c1.2,0,2.2,0.5,3.1,1.6v-1.3h1.7
		L118.8,400.1L118.8,400.1z M114.2,391.6c-1.6,0-2.9,1.2-2.9,3.6c0,2,0.9,3.6,3,3.6s2.9-1.7,2.9-3.7
		C117.2,392.9,116,391.6,114.2,391.6L114.2,391.6z M127.2,399.9v-5.6c0-0.5,0-1.1-0.2-1.6c-0.3-0.8-1-1.2-1.9-1.2
		c-0.4,0-1.5,0.1-2.1,1.2c-0.4,0.8-0.4,1.6-0.4,2.5v4.7H121v-14.2h1.6v5.7c1.1-1.2,2.2-1.3,2.9-1.3c2.9,0,3.4,2,3.4,3.6v6.1h-1.7
		V399.9z M141.5,393.9c0-0.9,0-2.5-2.1-2.5c-1.3,0-2,0.7-2,1.8v0.1l-1.7-0.1c0-0.5,0.3-3.1,3.6-3.1c0.6,0,1.6,0.1,2.4,0.6
		c1.3,0.8,1.4,1.7,1.4,3.4v3.3c0,0.6,0,1.1,0.7,1.1c0.2,0,0.3,0,0.5-0.1v1.3c-0.5,0.2-0.8,0.2-1,0.2c-0.1,0-0.7,0-1-0.2
		c-0.4-0.3-0.6-0.9-0.6-1.2c-0.4,0.5-1.4,1.5-3.2,1.5c-1.9,0-3.2-1.1-3.2-2.7c0-0.4,0.1-1.4,1-2c1-0.7,2.6-1,3.8-1.1l1.4-0.1
		L141.5,393.9L141.5,393.9z M138.1,396c-0.3,0.1-1.2,0.5-1.2,1.4c0,0.7,0.5,1.4,1.8,1.4c0.9,0,2.8-0.4,2.8-2.8v-0.7
		C140.7,395.4,138.8,395.6,138.1,396L138.1,396z M145.4,399.9v-14.2h1.5v14.2H145.4z M149.1,399.9v-14.2h1.5v14.2H149.1z
		 M159.8,397.8c0,0.7,0.2,0.9,0.7,0.9c0.2,0,0.6-0.1,1-0.2v1.3c-0.1,0-0.9,0.2-1.5,0.2c-1.6,0-1.8-0.6-1.8-1.7v-6.6h-1.5v-1.3h1.5
		v-3h1.6v3h1.7v1.3h-1.7V397.8z M170.2,390.4l-4,11.2c-0.8,2.1-1.3,2.9-2.9,2.9c-0.3,0-0.8,0-1.4-0.2v-1.4c0.2,0.1,0.6,0.2,1.1,0.2
		c0.9,0,1.3-0.4,1.8-2l0.4-1.2l-3.2-9.5h1.7l2.4,7.5l2.5-7.5H170.2z M172.8,390.4v1.3c0.5-0.7,1.7-1.6,3.4-1.6
		c1.9,0,4.3,1.5,4.3,5.1c0,2.2-1,5-4.4,5c-1.2,0-2.5-0.4-3.2-1.4v5.6h-1.6v-13.9h1.5L172.8,390.4z M175.8,398.8c2,0,3-1.4,3-3.7
		c0-2.5-1.6-3.5-2.9-3.5c-1.8,0-3.1,1.3-3.1,3.7C172.8,397.5,173.9,398.8,175.8,398.8z M183.2,395.6c0,1.5,0.8,3.4,3.1,3.4
		c1.7,0,2.3-1.3,2.5-2.2l1.6,0.2c-0.2,0.7-1.1,3.2-4.3,3.2c-2.3,0-4.6-1.4-4.6-5.1c0-3.6,2.6-4.9,4.6-4.9c2.1,0,4.3,1.4,4.3,5.1v0.3
		H183.2z M188.7,394.3c0-1.6-1.1-2.9-2.7-2.9c-1.7,0-2.5,1.4-2.7,2.9H188.7L188.7,394.3z M193.1,396.6c0,0.6,0.1,1.2,0.5,1.7
		c0.6,0.6,1.3,0.7,2.1,0.7s2.2-0.2,2.2-1.6c0-1.1-1.1-1.3-2-1.5l-0.9-0.2c-2.6-0.5-3.4-1.4-3.4-2.7c0-2.1,2-2.8,3.7-2.8
		c2,0,3.1,1,3.5,1.7c0.4,0.6,0.5,1.2,0.5,1.4l-1.7,0.2c0-0.5,0-0.7-0.1-0.9c-0.2-0.5-1-1.2-2.4-1.2c-1.3,0-1.9,0.8-1.9,1.4
		c0,0.8,0.8,1.1,2.3,1.5l0.9,0.2c1.8,0.4,3.1,1,3.1,2.7c0,1.8-1.7,3-4,3c-3,0-4.1-1.5-4.4-3.4L193.1,396.6L193.1,396.6z
		 M210.3,390.1c2.2,0,4.5,1.5,4.5,4.9c0,3.4-2.1,5.1-4.6,5.1c-2.6,0-4.6-1.8-4.6-5C205.5,393.6,206.2,390.1,210.3,390.1z
		 M210.1,398.9c1.9,0,2.9-1.5,2.9-4c0-1.6-0.6-3.5-2.8-3.5c-3,0-3,3.2-3,3.8C207.3,396.4,207.6,398.9,210.1,398.9z M220.2,390.4v1.3
		h-1.8v8.1h-1.6v-8.1h-1.6v-1.3h1.6v-0.8c0-1.3,0-1.9,0.2-2.5c0.5-1.3,1.9-1.3,2.2-1.3c0.2,0,0.6,0,1.2,0.1v1.3
		c-0.1,0-0.5-0.1-0.9-0.1c-0.8,0-1.2,0.5-1.2,1.5v1.8H220.2L220.2,390.4z M233.3,399.9v-1.2c-0.5,0.6-1.4,1.5-3.2,1.5
		c-2.8,0-4.4-2.1-4.4-5.1c0-3.7,2.4-5,4.3-5c1.7,0,2.9,1,3.3,1.5v-6h1.6v14.2h-1.6L233.3,399.9z M230.4,398.8c1.4,0,2.9-0.8,2.9-3.7
		c0-1.9-1.1-3.4-2.9-3.4c-2.2,0-3,1.8-3,3.6C227.5,396.9,228.1,398.8,230.4,398.8L230.4,398.8z M242.7,393.9c0-0.9,0-2.5-2.1-2.5
		c-1.3,0-2,0.7-2,1.8v0.1l-1.7-0.1c0-0.5,0.3-3.1,3.6-3.1c0.6,0,1.6,0.1,2.4,0.6c1.3,0.8,1.4,1.7,1.4,3.4v3.3c0,0.6,0,1.1,0.7,1.1
		c0.2,0,0.3,0,0.5-0.1v1.3c-0.5,0.2-0.8,0.2-1,0.2c-0.1,0-0.7,0-1-0.2c-0.4-0.3-0.6-0.9-0.6-1.2c-0.4,0.5-1.4,1.5-3.2,1.5
		c-1.9,0-3.2-1.1-3.2-2.7c0-0.4,0.1-1.4,1-2c1-0.7,2.6-1,3.8-1.1l1.4-0.1L242.7,393.9L242.7,393.9z M239.3,396
		c-0.3,0.1-1.2,0.5-1.2,1.4c0,0.7,0.5,1.4,1.8,1.4c0.9,0,2.8-0.4,2.8-2.8v-0.7C242,395.4,240.1,395.6,239.3,396L239.3,396z
		 M248.8,397.8c0,0.7,0.2,0.9,0.7,0.9c0.2,0,0.6-0.1,1-0.2v1.3c-0.1,0-0.9,0.2-1.5,0.2c-1.6,0-1.8-0.6-1.8-1.7v-6.6h-1.5v-1.3h1.5
		v-3h1.6v3h1.7v1.3h-1.7L248.8,397.8L248.8,397.8z M258,393.9c0-0.9,0-2.5-2.1-2.5c-1.3,0-2,0.7-2,1.8v0.1l-1.7-0.1
		c0-0.5,0.3-3.1,3.6-3.1c0.6,0,1.6,0.1,2.4,0.6c1.3,0.8,1.4,1.7,1.4,3.4v3.3c0,0.6,0,1.1,0.7,1.1c0.2,0,0.3,0,0.5-0.1v1.3
		c-0.5,0.2-0.8,0.2-1,0.2c-0.1,0-0.7,0-1-0.2c-0.4-0.3-0.6-0.9-0.6-1.2c-0.4,0.5-1.4,1.5-3.2,1.5c-1.9,0-3.2-1.1-3.2-2.7
		c0-0.4,0.1-1.4,1-2c1-0.7,2.6-1,3.8-1.1l1.4-0.1L258,393.9L258,393.9z M254.6,396c-0.3,0.1-1.2,0.5-1.2,1.4c0,0.7,0.5,1.4,1.8,1.4
		c0.9,0,2.8-0.4,2.8-2.8v-0.7C257.3,395.4,255.4,395.6,254.6,396L254.6,396z M-12.6,409.8v6c0.7-1.1,2-1.6,3.3-1.6
		c2.4,0,4.4,1.8,4.4,5c0,2.8-1.4,5-4.4,5c-1.8,0-2.8-0.9-3.2-1.5v1.2h-1.6v-14.2h1.5L-12.6,409.8z M-9.7,422.9
		c1.2,0,2.9-0.8,2.9-3.8c0-2.2-1.4-3.4-2.9-3.4c-1.3,0-3,0.8-3,3.6C-12.7,420.9-11.9,422.9-9.7,422.9L-9.7,422.9z M-2.3,419.6
		c0,1.5,0.8,3.4,3.1,3.4c1.7,0,2.3-1.3,2.5-2.2l1.6,0.2c-0.2,0.7-1.1,3.2-4.3,3.2c-2.3,0-4.6-1.4-4.6-5.1c0-3.6,2.6-4.9,4.6-4.9
		c2.1,0,4.3,1.4,4.3,5.1v0.3H-2.3z M3.2,418.4c0-1.6-1.1-2.9-2.7-2.9c-1.7,0-2.5,1.4-2.7,2.9C-2.2,418.4,3.2,418.4,3.2,418.4z
		 M10.3,414.5v1.3H8.5v8.1H7v-8.1H5.4v-1.3H7v-0.8c0-1.3,0-1.9,0.2-2.5c0.5-1.3,1.9-1.3,2.2-1.3c0.2,0,0.6,0,1.2,0.1v1.3
		c-0.1,0-0.5-0.1-0.9-0.1c-0.8,0-1.2,0.5-1.2,1.5v1.8C8.5,414.5,10.3,414.5,10.3,414.5z M15.7,414.2c2.2,0,4.5,1.5,4.5,4.9
		s-2.1,5.1-4.6,5.1c-2.6,0-4.6-1.8-4.6-5C10.9,417.7,11.6,414.2,15.7,414.2z M15.5,423c1.9,0,2.9-1.5,2.9-4c0-1.6-0.6-3.5-2.8-3.5
		c-3,0-3,3.2-3,3.8C12.7,420.5,13,423,15.5,423z M23.4,414.5v1.7c0.2-0.4,0.5-0.8,0.9-1.1s1.1-0.8,2.3-0.8v1.7
		c-0.2,0-0.4-0.1-0.6-0.1c-1.1,0-2.1,0.6-2.5,1.8c-0.1,0.5-0.1,0.8-0.1,1.7v4.4h-1.6v-9.5h1.6L23.4,414.5z M28.8,419.6
		c0,1.5,0.8,3.4,3.1,3.4c1.7,0,2.3-1.3,2.5-2.2L36,421c-0.2,0.7-1.1,3.2-4.3,3.2c-2.3,0-4.6-1.4-4.6-5.1c0-3.6,2.6-4.9,4.6-4.9
		c2.1,0,4.3,1.4,4.3,5.1v0.3H28.8z M34.2,418.4c0-1.6-1.1-2.9-2.7-2.9c-1.7,0-2.5,1.4-2.7,2.9C28.8,418.4,34.2,418.4,34.2,418.4z
		 M53.8,424v-6.3c0-1.7-1.1-1.9-1.7-1.9c-0.9,0-2,0.7-2.3,1.6c-0.1,0.3-0.1,0.7-0.1,1.4v5.3h-1.6v-6.2c0-1.9-1.2-2.1-1.7-2.1
		c-0.8,0-1.9,0.6-2.2,1.4c-0.1,0.3-0.1,0.6-0.1,1.2v5.6h-1.5v-9.5h1.5v1.3c0.8-0.9,1.7-1.6,2.8-1.6c0.3,0,1.3,0.1,2,0.9l0.6,0.9
		c0.6-0.5,1.5-1.7,3.2-1.7c1.2,0,1.9,0.7,2.2,1c0.6,0.7,0.6,1.6,0.6,2.5v6.2L53.8,424L53.8,424z M63.1,418c0-0.9,0-2.5-2.1-2.5
		c-1.3,0-2,0.7-2,1.8v0.1l-1.7-0.1c0-0.5,0.3-3.1,3.6-3.1c0.6,0,1.6,0.1,2.4,0.6c1.3,0.8,1.4,1.7,1.4,3.4v3.3c0,0.6,0,1.1,0.7,1.1
		c0.2,0,0.3,0,0.5-0.1v1.3c-0.5,0.2-0.8,0.2-1,0.2c-0.1,0-0.7,0-1-0.2c-0.4-0.3-0.6-0.9-0.6-1.2c-0.4,0.5-1.4,1.5-3.2,1.5
		c-1.9,0-3.2-1.1-3.2-2.7c0-0.4,0.1-1.4,1-2c1-0.7,2.6-1,3.8-1.1l1.4-0.1L63.1,418L63.1,418z M59.7,420c-0.3,0.1-1.2,0.5-1.2,1.4
		c0,0.7,0.5,1.4,1.8,1.4c0.9,0,2.8-0.4,2.8-2.8v-0.7C62.4,419.5,60.5,419.7,59.7,420L59.7,420z M73.1,424l-3.4-4.5l-1.1,1.2v3.3H67
		v-14.2h1.6v8.7l3.8-4h2l-3.5,3.7l4.3,5.7h-2.1V424z M75.7,411.6v-1.8h1.5v1.8H75.7z M75.7,424v-9.5h1.5v9.5H75.7z M85.6,424v-6.2
		c0-1.5-1-2-2.1-2c-1.3,0-2.5,1-2.5,2.6v5.6h-1.6v-9.5H81v1.4c0.4-0.7,1.3-1.7,3-1.7c0.4,0,1.8,0.1,2.7,1.3c0.5,0.8,0.6,1.6,0.6,2.5
		v6H85.6L85.6,424z M98,424.1c0,3.5-2.2,4.4-4.4,4.4s-4.1-1.1-4.3-3.5h1.8c0,1.5,1.1,2.2,2.6,2.2c2,0,2.6-1.1,2.6-2.8v-1.8
		c-1.1,1.5-2.3,1.7-3.1,1.7c-2.4,0-4.4-1.8-4.4-5c0-2.2,1-5.1,4.4-5.1c1.2,0,2.2,0.5,3.1,1.6v-1.3H98L98,424.1L98,424.1z
		 M93.4,415.7c-1.6,0-2.9,1.2-2.9,3.6c0,2,0.9,3.6,3,3.6s2.9-1.7,2.9-3.7C96.3,416.9,95.1,415.7,93.4,415.7L93.4,415.7z
		 M112.2,414.5l-4,11.2c-0.8,2.1-1.3,3-2.9,3c-0.3,0-0.8,0-1.4-0.2v-1.4c0.2,0.1,0.6,0.2,1.1,0.2c0.9,0,1.3-0.4,1.8-2l0.4-1.2
		l-3.2-9.5h1.7l2.4,7.5l2.5-7.5L112.2,414.5L112.2,414.5z M117.5,414.2c2.2,0,4.5,1.5,4.5,4.9s-2.1,5.1-4.6,5.1
		c-2.6,0-4.6-1.8-4.6-5C112.8,417.7,113.4,414.2,117.5,414.2L117.5,414.2z M117.4,423c1.9,0,2.9-1.5,2.9-4c0-1.6-0.6-3.5-2.8-3.5
		c-3,0-3,3.2-3,3.8C114.5,420.5,114.8,423,117.4,423L117.4,423z M129.9,424v-1.4c-0.7,1-2,1.7-3.2,1.7c-0.3,0-1.8-0.1-2.5-1.2
		c-0.4-0.7-0.5-1.6-0.5-2.4v-6.1h1.6v5.4c0,1,0,1.4,0.2,1.9c0.2,0.4,0.7,0.9,1.7,0.9c0.4,0,1.6-0.1,2.2-1.1c0.5-0.7,0.5-1.5,0.5-2.3
		v-4.8h1.6v9.5L129.9,424L129.9,424z M135.2,414.5v1.7c0.2-0.4,0.5-0.8,0.9-1.1s1.1-0.8,2.3-0.8v1.7c-0.2,0-0.4-0.1-0.6-0.1
		c-1.1,0-2.1,0.6-2.5,1.8c-0.1,0.5-0.1,0.8-0.1,1.7v4.4h-1.6v-9.5h1.6L135.2,414.5z M148.1,414.5v1.3h-1.8v8.1h-1.6v-8.1h-1.6v-1.3
		h1.6v-0.8c0-1.3,0-1.9,0.2-2.5c0.5-1.3,1.9-1.3,2.2-1.3c0.2,0,0.6,0,1.2,0.1v1.3c-0.1,0-0.5-0.1-0.9-0.1c-0.8,0-1.2,0.5-1.2,1.5
		v1.8H148.1L148.1,414.5z M149.8,411.6v-1.8h1.5v1.8H149.8z M149.8,424v-9.5h1.5v9.5H149.8z M159.7,424v-6.2c0-1.5-1-2-2.1-2
		c-1.3,0-2.5,1-2.5,2.6v5.6h-1.6v-9.5h1.6v1.4c0.4-0.7,1.3-1.7,3-1.7c0.4,0,1.8,0.1,2.7,1.3c0.5,0.8,0.6,1.6,0.6,2.5v6H159.7
		L159.7,424z M169,418c0-0.9,0-2.5-2.1-2.5c-1.3,0-2,0.7-2,1.8v0.1l-1.7-0.1c0-0.5,0.3-3.1,3.6-3.1c0.6,0,1.6,0.1,2.4,0.6
		c1.3,0.8,1.4,1.7,1.4,3.4v3.3c0,0.6,0,1.1,0.7,1.1c0.2,0,0.3,0,0.5-0.1v1.3c-0.5,0.2-0.8,0.2-1,0.2c-0.1,0-0.7,0-1-0.2
		c-0.4-0.3-0.6-0.9-0.6-1.2c-0.4,0.5-1.4,1.5-3.2,1.5c-1.9,0-3.2-1.1-3.2-2.7c0-0.4,0.1-1.4,1-2c1-0.7,2.6-1,3.8-1.1l1.4-0.1
		L169,418L169,418z M165.6,420c-0.3,0.1-1.2,0.5-1.2,1.4c0,0.7,0.5,1.4,1.8,1.4c0.9,0,2.8-0.4,2.8-2.8v-0.7
		C168.3,419.5,166.4,419.7,165.6,420L165.6,420z M172.9,424v-14.2h1.5V424H172.9z M188.6,424v-1.2c-0.5,0.6-1.4,1.5-3.2,1.5
		c-2.8,0-4.4-2.1-4.4-5.1c0-3.7,2.4-5,4.3-5c1.7,0,2.9,1,3.3,1.5v-6h1.6v14.2h-1.6L188.6,424z M185.7,422.8c1.4,0,2.9-0.8,2.9-3.7
		c0-1.9-1.1-3.4-2.9-3.4c-2.2,0-3,1.8-3,3.6C182.7,420.9,183.4,422.8,185.7,422.8L185.7,422.8z M193.5,419.6c0,1.5,0.8,3.4,3.1,3.4
		c1.7,0,2.3-1.3,2.5-2.2l1.6,0.2c-0.2,0.7-1.1,3.2-4.3,3.2c-2.3,0-4.6-1.4-4.6-5.1c0-3.6,2.6-4.9,4.6-4.9c2.1,0,4.3,1.4,4.3,5.1v0.3
		H193.5z M198.9,418.4c0-1.6-1.1-2.9-2.7-2.9c-1.7,0-2.5,1.4-2.7,2.9H198.9L198.9,418.4z M210.8,420.6c-0.5,2.7-2.3,3.7-4.5,3.7
		c-3,0-4.7-2.1-4.7-5c0-2.8,1.5-5.1,4.6-5.1c2.8,0,4.1,1.8,4.4,3.2l-1.8,0.2c-0.2-1.4-1.2-2.2-2.6-2.2s-2.8,1-2.8,3.8
		c0,2.2,1,3.8,3,3.8c1.8,0,2.5-1.1,2.7-2.6L210.8,420.6L210.8,420.6z M212.3,411.6v-1.8h1.5v1.8H212.3z M212.3,424v-9.5h1.5v9.5
		H212.3z M217,420.7c0,0.6,0.1,1.2,0.5,1.7c0.6,0.6,1.3,0.7,2.1,0.7s2.2-0.2,2.2-1.6c0-1.1-1.1-1.3-2-1.5l-0.9-0.2
		c-2.6-0.5-3.4-1.4-3.4-2.7c0-2.1,2-2.8,3.7-2.8c2,0,3.1,1,3.5,1.7c0.4,0.6,0.5,1.2,0.5,1.4l-1.7,0.2c0-0.5,0-0.7-0.1-0.9
		c-0.2-0.5-1-1.2-2.4-1.2c-1.3,0-1.9,0.8-1.9,1.4c0,0.8,0.8,1.1,2.3,1.5l0.9,0.2c1.8,0.4,3.1,1,3.1,2.7c0,1.8-1.7,3-4,3
		c-3,0-4.1-1.5-4.4-3.4L217,420.7L217,420.7z M225,411.6v-1.8h1.5v1.8H225z M225,424v-9.5h1.5v9.5H225z M232.9,414.2
		c2.2,0,4.5,1.5,4.5,4.9s-2.1,5.1-4.6,5.1c-2.6,0-4.6-1.8-4.6-5C228.1,417.7,228.8,414.2,232.9,414.2z M232.8,423
		c1.9,0,2.9-1.5,2.9-4c0-1.6-0.6-3.5-2.8-3.5c-3,0-3,3.2-3,3.8C229.9,420.5,230.2,423,232.8,423z M245.3,424v-6.2c0-1.5-1-2-2.1-2
		c-1.3,0-2.5,1-2.5,2.6v5.6H239v-9.5h1.6v1.4c0.4-0.7,1.3-1.7,3-1.7c0.4,0,1.8,0.1,2.7,1.3c0.5,0.8,0.6,1.6,0.6,2.5v6H245.3
		L245.3,424z M248.9,424v-2.3h2v2.3H248.9z"/>
</g>
<g>
	<path class="st0" d="M39.6,220.4l1.2,4.9c0.4,1.6,0.5,2.8,0.6,4h0.2c0.1-0.7,0.2-2.3,0.7-4.3l1.3-4.6h2.8l-3.5,12.1v8.8h-3v-8.7
		l-3.2-12.2H39.6L39.6,220.4z M47.7,226.1c0-1.9,0.1-3.3,1-4.4c0.9-1,2.1-1.5,3.4-1.5c1.2,0,2.3,0.3,3.1,1.2
		c1.2,1.2,1.2,2.7,1.2,5.2v9.9c0,1.5-0.1,4.9-4.6,4.9c-0.6,0-2.7,0-3.7-2c-0.5-0.9-0.5-2-0.5-3v-10.3H47.7z M53.7,225.9
		c0-1.8,0-3.2-1.6-3.2c-0.2,0-1.2,0-1.5,1c-0.1,0.4-0.1,0.9-0.1,2.2v11.2c0,1,0.1,2.2,1.6,2.2c1.6,0,1.7-1.4,1.7-2.8L53.7,225.9
		L53.7,225.9z M59.7,220.4h2.7v16.2c0,1.4,0,2.8,1.7,2.8s1.7-1.4,1.7-3v-16h2.7v15.9c0,1.5,0,5.4-4.5,5.4c-4.3,0-4.3-3.8-4.3-4.9
		L59.7,220.4L59.7,220.4z M70.6,220.4H73v3.2c0,2.8-0.4,3.6-2.2,4.6v-0.6c0.9-0.6,1.1-1.2,1.1-3.3h-1.2v-3.9H70.6z M81.1,220.4h2.7
		l-3.2,20.9h-3.2l-3.2-20.9H77l1.6,12c0.3,2.4,0.4,2.6,0.4,4.6h0.3c0-1.9,0-2,0.4-4.9L81.1,220.4z M86.3,220.4h6.9v2.6h-4.1v6.1h3.7
		v2.6h-3.7v7h4.1v2.6h-6.9V220.4z M101.1,220.4h6.9v2.6h-4.1v6.1h3.7v2.6h-3.7v7h4.1v2.6h-6.9V220.4z M115.6,220.4l3.2,20.9h-2.7
		l-0.5-3.8h-3.1l-0.5,3.8h-2.7l2.9-20.9H115.6L115.6,220.4z M113.8,224.4c-0.1,2.7-0.1,3-0.1,3.4l-0.9,7.2h2.5l-1-7.3
		c-0.1-0.8-0.1-1.6-0.2-3.3C114.1,224.4,113.8,224.4,113.8,224.4z M120.8,220.4h4.5c3.4,0,3.8,0.9,3.8,5.1c0,3.7-0.1,5.2-2.3,5.2
		v0.1c2,0.2,2.2,1.4,2.2,4.1v2.3c0,2.5,0.1,2.9,0.5,4.1h-2.9c-0.2-1.2-0.4-2.2-0.4-4.4v-1.5c0-0.8,0-2.5-0.4-3.1
		c-0.3-0.6-0.7-0.6-2.3-0.6v9.6h-2.8L120.8,220.4L120.8,220.4z M123.6,223v6.5h1.3c1.4,0,1.5-0.6,1.5-4.1c0-2.3-0.1-2.4-1.3-2.4
		H123.6z M135.2,220.4l3.1,13.4c0.2,0.8,0.3,1.4,0.4,2.1h0.2l-0.3-3l-0.1-2l-0.1-10.5h2.6v20.9h-3l-3.4-15.7h-0.2l0.1,1.8l0.1,1.8
		l0.2,12h-2.6v-20.8H135.2z M144.6,220.4h6.9v2.6h-4.1v6.1h3.7v2.6h-3.7v7h4.1v2.6h-6.9V220.4z M154.4,220.4h5.1
		c3,0,3.2,1.7,3.2,3.4v13.9c0,2.8-0.7,3.6-3,3.6h-5.3V220.4z M157.1,223v15.8h1.8c0.8,0,0.9-0.5,0.9-1.2v-13.2c0-0.8,0-1.5-1.1-1.5
		L157.1,223L157.1,223z M170.2,220.4h9.2v2.5h-3.3v18.4h-2.8v-18.4h-3.2L170.2,220.4L170.2,220.4z M183.6,220.4v8.5h2.6v-8.5h2.8
		v20.9h-2.8v-9.7h-2.5v9.7h-2.8v-20.9H183.6L183.6,220.4z M192.7,220.4h6.9v2.6h-4.1v6.1h3.7v2.6h-3.7v7h4.1v2.6h-6.9V220.4z"/>
</g>
<g>
	<path class="st0" d="M-87.4,290.5c0,1.6,0,4.4,3.1,4.4c2.9,0,2.9-2.9,2.9-5.3c0-4.3-0.8-6.2-4.9-12.3c-3.6-5.3-6.3-9.2-6.3-15.1
		c0-2.5,0.5-4.5,1.6-6.3c1.8-2.9,4.6-3.8,7.7-3.8c5.7,0,7.7,3.1,7.7,7.9v8.2h-5.5v-8.1c0-1.4-0.2-3.1-2.4-3.1
		c-2.8,0-3.1,2.3-3.1,4.6c0,4.7,1.4,6.8,5.9,13.3c2.9,4.4,5.5,8.1,5.5,14c0,3.1-0.8,6-2.1,7.9c-2.1,2.9-5.2,3.1-6.9,3.1
		c-8.8-0.2-8.8-7.8-8.8-10.1v-7.7h5.6V290.5z M-57.8,253l7.1,45.9h-5.9l-1.2-8.4h-6.9l-1,8.4h-5.8l6.4-45.9
		C-65.1,253-57.8,253-57.8,253z M-61.8,261.6c-0.2,6-0.2,6.6-0.3,7.4l-2,15.8h5.5l-2.3-15.9c-0.3-1.8-0.3-3.5-0.4-7.3
		C-61.3,261.6-61.8,261.6-61.8,261.6z M-33.5,252.9h6l-7,45.9h-7.1l-7.1-45.9h6l3.4,26.4c0.7,5.2,0.8,5.8,0.9,10.2h0.6
		c0.1-4.2,0.1-4.4,0.9-10.7C-36.9,278.8-33.5,252.9-33.5,252.9z M-9.8,252.9h6l-7,45.9H-18l-7-45.9h6l3.4,26.4
		c0.7,5.2,0.8,5.8,0.9,10.2h0.7c0.1-4.2,0.1-4.4,0.9-10.7C-13.1,278.8-9.8,252.9-9.8,252.9z M4,253l2.7,10.7c0.8,3.4,1,6.1,1.3,8.8
		h0.5c0.1-1.5,0.4-5.1,1.6-9.4L13,253h6.1l-7.6,26.6v19.2H4.9v-19.1l-7-26.7H4z M40.4,290.5c0,1.6,0,4.4,3.1,4.4
		c2.9,0,2.9-2.9,2.9-5.3c0-4.3-0.8-6.2-4.9-12.3c-3.6-5.3-6.3-9.2-6.3-15.1c0-2.5,0.5-4.5,1.6-6.3c1.8-2.9,4.6-3.8,7.7-3.8
		c5.7,0,7.7,3.1,7.7,7.9v8.2h-5.5v-8.1c0-1.4-0.2-3.1-2.4-3.1c-2.8,0-3.1,2.3-3.1,4.6c0,4.7,1.4,6.8,5.9,13.3
		c2.9,4.4,5.5,8.1,5.5,14c0,3.1-0.8,6-2.1,7.9c-2.1,2.9-5.2,3.1-6.9,3.1c-8.8,0-8.8-7.6-8.8-9.9v-7.7h5.6V290.5z M65,253v18.7h5.7
		V253h6v45.9h-6.1v-21.4H65v21.3h-6V253H65z M83.9,265.4c0-4.2,0.2-7.1,2.3-9.6c1.9-2.1,4.7-3.2,7.5-3.2c2.5,0,5,0.6,6.9,2.6
		c2.5,2.7,2.5,5.8,2.5,11.5v21.8c0,3.4-0.1,10.8-10,10.8c-1.2,0-5.9,0-8.1-4.5c-1.1-2.1-1.1-4.3-1.1-6.5L83.9,265.4L83.9,265.4z
		 M97.2,264.9c0-4,0-7-3.5-7c-0.5,0-2.6,0-3.4,2.2C90,261,90,262,90,264.8v24.6c0,2.3,0.2,4.8,3.5,4.8c3.6,0,3.7-3,3.7-6.2V264.9z
		 M110.4,253h11.8c5.8,0,6.3,2.9,6.3,7.9v8.7c0,6.4-0.5,8.5-6.1,8.5h-6v20.8h-5.9V253H110.4z M116.4,258.6v14h3.8
		c1.4,0,2.1-0.3,2.1-2.1v-9.6c0-1.6-0.3-2.3-2.3-2.3H116.4z M134.8,253h11.8c5.8,0,6.3,2.9,6.3,7.9v8.7c0,6.4-0.5,8.5-6.1,8.5h-6
		v20.8h-5.9V253H134.8z M140.8,258.6v14h3.8c1.4,0,2.1-0.3,2.1-2.1v-9.6c0-1.6-0.3-2.3-2.3-2.3H140.8z M159.2,253h15.1v5.8h-9v13.4
		h8.1v5.7h-8.1v15.3h9v5.8h-15.2v-46L159.2,253z M180.9,253h9.9c7.4,0,8.3,2,8.3,11.1c0,8.1-0.2,11.4-5.1,11.3v0.3
		c4.4,0.5,4.9,3,4.9,9.1v5c0,5.5,0.1,6.4,1.2,9.1h-6.3c-0.5-2.7-1-4.9-1-9.6v-3.2c0-1.8-0.1-5.4-0.8-6.9c-0.7-1.4-1.4-1.4-5-1.4
		v21.1h-6V253H180.9z M187,258.5v14.2h2.9c3.1,0,3.2-1.4,3.2-9c0-5.1-0.3-5.2-2.9-5.2H187z M217.4,253h10.7c7,0,7.1,2.7,7.1,11.4
		c0,7,0,9.8-4.6,10v0.3c1.5,0.1,3.8,0.3,4.4,3.4c0.1,0.8,0.2,1.1,0.2,9.3c0,9.2-0.5,11.4-8.6,11.4h-9.3L217.4,253L217.4,253z
		 M223.3,272.2c4.4,0,5.1,0,5.6-1.2c0.5-1,0.5-4.7,0.5-6.2c0-0.8-0.1-2.1-0.1-3.2c-0.1-1.9-0.3-2.5-0.8-2.8s-0.6-0.3-5.1-0.3v13.7
		H223.3z M223.3,277.2v16h3.1c1.8,0,2.3-0.1,2.7-0.9c0.4-0.8,0.4-5.9,0.4-7.1c0-7.1-0.3-7.9-2.8-7.9h-3.4L223.3,277.2z M253.3,253
		l7.1,45.9h-5.9l-1.2-8.4h-6.9l-1,8.4h-5.8L246,253C246,253,253.3,253,253.3,253z M249.3,261.6c-0.2,6-0.2,6.6-0.3,7.4l-2,15.8h5.5
		l-2.3-15.9c-0.3-1.8-0.3-3.5-0.4-7.3L249.3,261.6L249.3,261.6z M264.6,253h11.1c6.5,0,7,3.7,7,7.4v30.5c0,6-1.6,7.9-6.5,7.9h-11.6
		V253z M270.7,258.6v34.6h4c1.8,0,1.9-1,1.9-2.5v-28.9c0-1.8-0.1-3.2-2.5-3.2H270.7z M289.7,265.5c0-4,0-6.6,1.7-9.2
		c2.1-3.4,5.6-3.8,7.5-3.8c8.2,0,8.2,6.7,8.2,10.1v4.7h-5.6v-5.1c0-2.6-0.1-4.7-2.8-4.7c-3.1,0-3.1,2.8-3.1,5.1V289c0,3,0,5.5,3,5.5
		c3.1,0,3.1-2.7,3.1-4.1V280H298v-5.6h9.7v24.4h-3.6l-0.5-2.1c-0.8,1-2.1,2.9-5.5,2.9c-8.3,0-8.3-8.1-8.3-11.4v-22.7H289.7z
		 M315.6,253h15.1v5.8h-9v13.4h8.1v5.7h-8.1v15.3h9v5.8h-15.2v-46L315.6,253z"/>
</g>
<path class="st1" d="M-55.3,312.9H292"/>
<g>
	<path class="st1" d="M-45.5,221.9h73.7 M-45.5,241.3h73.7"/>
	<path class="st2" d="M-55.3,231.6h83.5"/>
	<path class="st1" d="M282.3,221.9h-73.7 M282.3,241.3h-73.7"/>
	<path class="st2" d="M292,231.6h-83.4"/>
</g>
<path class="st1" d="M-55.3,452.9H292"/>
</svg>
