<?xml version="1.0" encoding="utf-8"?>
<!-- Generator: Adobe Illustrator 19.0.0, SVG Export Plug-In . SVG Version: 6.00 Build 0)  -->
<svg version="1.1" id="Layer_1" xmlns="http://www.w3.org/2000/svg" xmlns:xlink="http://www.w3.org/1999/xlink" x="0px" y="0px"
	 viewBox="-130 220.3 349.7 352.7" style="enable-background:new -130 220.3 349.7 352.7;" xml:space="preserve">
<style type="text/css">
	.st0{fill:#FFFFFF;}
	.st1{fill:#FFD400;}
	.st2{fill:none;stroke:#58595B;stroke-width:1.269;stroke-linecap:round;stroke-linejoin:round;stroke-miterlimit:10;}
	.st3{fill:none;stroke:#58595B;stroke-width:2.44;stroke-linecap:round;stroke-linejoin:round;stroke-miterlimit:10;}
</style>
<g>
	<path class="st0" d="M-100.6,345.2v6.5h-1.9v-6.5l-5-7.7h2.2l3.7,6l3.8-6h2.2C-95.6,337.5-100.6,345.2-100.6,345.2z M-92.6,342
		c2.2,0,4.5,1.5,4.5,4.9s-2.1,5.1-4.6,5.1c-2.6,0-4.6-1.8-4.6-5C-97.4,345.5-96.7,342-92.6,342z M-92.8,350.7c1.9,0,2.9-1.5,2.9-4
		c0-1.6-0.6-3.5-2.8-3.5c-3,0-3,3.2-3,3.8C-95.7,348.2-95.3,350.7-92.8,350.7z M-80.3,351.7v-1.4c-0.7,1-2,1.7-3.2,1.7
		c-0.3,0-1.8-0.1-2.5-1.2c-0.4-0.7-0.5-1.6-0.5-2.4v-6.1h1.5v5.4c0,1,0,1.4,0.2,1.9c0.2,0.4,0.7,0.9,1.7,0.9c0.4,0,1.6-0.1,2.2-1.1
		c0.5-0.7,0.5-1.5,0.5-2.3v-4.8h1.6v9.5h-1.5V351.7z M-65.4,351.7v-5.5c0-0.5,0-1.1-0.2-1.6c-0.3-0.8-1-1.2-1.9-1.2
		c-0.4,0-1.5,0.1-2.1,1.2c-0.4,0.8-0.4,1.6-0.4,2.5v4.7h-1.6v-14.2h1.6v5.7c1.1-1.2,2.2-1.3,2.9-1.3c2.9,0,3.4,2,3.4,3.6v6.1
		C-63.7,351.7-65.4,351.7-65.4,351.7z M-56.1,345.7c0-0.9,0-2.5-2.1-2.5c-1.3,0-2,0.7-2,1.8v0.1l-1.7-0.1c0-0.5,0.3-3.1,3.6-3.1
		c0.6,0,1.6,0.1,2.4,0.6c1.3,0.8,1.4,1.7,1.4,3.4v3.3c0,0.6,0,1.1,0.7,1.1c0.2,0,0.3,0,0.5-0.1v1.3c-0.5,0.2-0.8,0.2-1,0.2
		c-0.1,0-0.7,0-1-0.2c-0.4-0.3-0.6-0.9-0.6-1.2c-0.4,0.5-1.4,1.5-3.2,1.5c-1.9,0-3.2-1.1-3.2-2.7c0-0.4,0.1-1.4,1-2
		c1-0.7,2.6-1,3.8-1.1l1.4-0.1L-56.1,345.7L-56.1,345.7z M-59.4,347.8c-0.3,0.1-1.2,0.5-1.2,1.4c0,0.7,0.5,1.4,1.8,1.4
		c0.9,0,2.8-0.4,2.8-2.8v-0.7C-56.8,347.2-58.7,347.5-59.4,347.8L-59.4,347.8z M-48.3,351.7h-1.4l-3.5-9.5h1.7l2.5,7.2l2.5-7.2h1.6
		C-44.9,342.2-48.3,351.7-48.3,351.7z M-42.7,347.4c0,1.5,0.8,3.4,3.1,3.4c1.7,0,2.3-1.3,2.5-2.2l1.6,0.2c-0.2,0.7-1.1,3.2-4.3,3.2
		c-2.3,0-4.6-1.4-4.6-5.1c0-3.6,2.6-4.9,4.6-4.9c2.1,0,4.3,1.4,4.3,5.1v0.3H-42.7z M-37.3,346.1c0-1.6-1.1-2.9-2.7-2.9
		c-1.7,0-2.5,1.4-2.7,2.9C-42.7,346.1-37.3,346.1-37.3,346.1z M-23.4,345.7c0-0.9,0-2.5-2.1-2.5c-1.3,0-2,0.7-2,1.8v0.1l-1.7-0.1
		c0-0.5,0.3-3.1,3.6-3.1c0.6,0,1.6,0.1,2.4,0.6c1.3,0.8,1.4,1.7,1.4,3.4v3.3c0,0.6,0,1.1,0.7,1.1c0.2,0,0.3,0,0.5-0.1v1.3
		c-0.5,0.2-0.8,0.2-1,0.2c-0.1,0-0.7,0-1-0.2c-0.4-0.3-0.6-0.9-0.6-1.2c-0.4,0.5-1.4,1.5-3.2,1.5c-1.9,0-3.2-1.1-3.2-2.7
		c0-0.4,0.1-1.4,1-2c1-0.7,2.6-1,3.8-1.1l1.4-0.1L-23.4,345.7L-23.4,345.7z M-26.7,347.8c-0.3,0.1-1.2,0.5-1.2,1.4
		c0,0.7,0.5,1.4,1.8,1.4c0.9,0,2.8-0.4,2.8-2.8v-0.7C-24.1,347.2-26,347.5-26.7,347.8L-26.7,347.8z M-10.7,342.3v1.3h-1.8v8.1h-1.6
		v-8.1h-1.6v-1.3h1.6v-0.8c0-1.3,0-1.9,0.2-2.5c0.5-1.3,1.9-1.3,2.2-1.3c0.2,0,0.6,0,1.2,0.1v1.3c-0.1,0-0.5-0.1-0.9-0.1
		c-0.8,0-1.2,0.5-1.2,1.5v1.8C-12.6,342.3-10.7,342.3-10.7,342.3z M-3.4,351.7v-1.4c-0.7,1-2,1.7-3.2,1.7c-0.3,0-1.8-0.1-2.5-1.2
		c-0.4-0.7-0.5-1.6-0.5-2.4v-6.1H-8v5.4c0,1,0,1.4,0.2,1.9c0.2,0.4,0.7,0.9,1.7,0.9c0.4,0,1.6-0.1,2.2-1.1c0.5-0.7,0.5-1.5,0.5-2.3
		v-4.8h1.6v9.5h-1.6V351.7z M0.4,351.7v-14.2h1.5v14.2H0.4z M4.1,351.7v-14.2h1.5v14.2H4.1z M14.2,342.3v1.3
		c0.5-0.7,1.7-1.6,3.4-1.6c1.9,0,4.3,1.5,4.3,5.1c0,2.2-1,5-4.4,5c-1.2,0-2.5-0.4-3.2-1.4v5.6h-1.6v-14H14.2L14.2,342.3z
		 M17.2,350.6c2,0,3-1.4,3-3.7c0-2.5-1.6-3.5-2.9-3.5c-1.8,0-3.1,1.3-3.1,3.7C14.2,349.3,15.3,350.6,17.2,350.6z M23.4,351.7v-14.2
		h1.5v14.2H23.4z M32.7,345.7c0-0.9,0-2.5-2.1-2.5c-1.3,0-2,0.7-2,1.8v0.1l-1.7-0.1c0-0.5,0.3-3.1,3.6-3.1c0.6,0,1.6,0.1,2.4,0.6
		c1.3,0.8,1.4,1.7,1.4,3.4v3.3c0,0.6,0,1.1,0.7,1.1c0.2,0,0.3,0,0.5-0.1v1.3c-0.5,0.2-0.8,0.2-1,0.2c-0.1,0-0.7,0-1-0.2
		c-0.4-0.3-0.6-0.9-0.6-1.2c-0.4,0.5-1.4,1.5-3.2,1.5c-1.9,0-3.2-1.1-3.2-2.7c0-0.4,0.1-1.4,1-2c1-0.7,2.6-1,3.8-1.1l1.4-0.1
		L32.7,345.7L32.7,345.7z M29.3,347.8c-0.3,0.1-1.2,0.5-1.2,1.4c0,0.7,0.5,1.4,1.8,1.4c0.9,0,2.8-0.4,2.8-2.8v-0.7
		C32,347.2,30.1,347.5,29.3,347.8L29.3,347.8z M38.8,349.7c0,0.7,0.2,0.9,0.7,0.9c0.2,0,0.6-0.1,1-0.2v1.3c-0.1,0-0.9,0.2-1.5,0.2
		c-1.6,0-1.8-0.6-1.8-1.7v-6.6h-1.5v-1.3h1.5v-3h1.6v3h1.7v1.3h-1.7V349.7L38.8,349.7z M43.2,347.4c0,1.5,0.8,3.4,3.1,3.4
		c1.7,0,2.3-1.3,2.5-2.2l1.6,0.2c-0.2,0.7-1.1,3.2-4.3,3.2c-2.3,0-4.6-1.4-4.6-5.1c0-3.6,2.6-4.9,4.6-4.9c2.1,0,4.3,1.4,4.3,5.1v0.3
		H43.2L43.2,347.4z M48.6,346.1c0-1.6-1.1-2.9-2.7-2.9c-1.7,0-2.5,1.4-2.7,2.9H48.6z M58.1,347.4c0,1.5,0.8,3.4,3.1,3.4
		c1.7,0,2.3-1.3,2.5-2.2l1.6,0.2c-0.2,0.7-1.1,3.2-4.3,3.2c-2.3,0-4.6-1.4-4.6-5.1c0-3.6,2.6-4.9,4.6-4.9c2.1,0,4.3,1.4,4.3,5.1v0.3
		H58.1L58.1,347.4z M63.5,346.1c0-1.6-1.1-2.9-2.7-2.9c-1.7,0-2.5,1.4-2.7,2.9H63.5z M70.6,351.7h-1.4l-3.5-9.5h1.7l2.5,7.2l2.5-7.2
		H74L70.6,351.7L70.6,351.7z M76.3,347.4c0,1.5,0.8,3.4,3.1,3.4c1.7,0,2.3-1.3,2.5-2.2l1.6,0.2c-0.2,0.7-1.1,3.2-4.3,3.2
		c-2.3,0-4.6-1.4-4.6-5.1c0-3.6,2.6-4.9,4.6-4.9c2.1,0,4.3,1.4,4.3,5.1v0.3H76.3L76.3,347.4z M81.7,346.1c0-1.6-1.1-2.9-2.7-2.9
		c-1.7,0-2.5,1.4-2.7,2.9H81.7z M86.6,342.3v1.7c0.2-0.4,0.5-0.8,0.9-1.1c0.4-0.3,1.1-0.8,2.3-0.8v1.7c-0.2,0-0.4-0.1-0.6-0.1
		c-1.1,0-2.1,0.6-2.5,1.8c-0.1,0.5-0.1,0.8-0.1,1.7v4.4H85v-9.3H86.6z"/>
	<path class="st0" d="M98,342.3l-4,11.2c-0.8,2.1-1.3,2.9-2.9,2.9c-0.3,0-0.8,0-1.4-0.2v-1.4c0.2,0.1,0.6,0.2,1.1,0.2
		c0.9,0,1.3-0.4,1.8-2l0.4-1.2l-3.2-9.5h1.7l2.4,7.5l2.5-7.5H98L98,342.3z M111.1,351.7v-1.2c-0.5,0.6-1.4,1.5-3.2,1.5
		c-2.8,0-4.4-2.1-4.4-5.1c0-3.7,2.4-5,4.3-5c1.7,0,2.9,1,3.3,1.5v-6h1.6v14.2h-1.6L111.1,351.7z M108.2,350.6c1.4,0,2.9-0.8,2.9-3.7
		c0-1.9-1.1-3.4-2.9-3.4c-2.2,0-3,1.8-3,3.6C105.2,348.7,105.9,350.6,108.2,350.6z M120.4,345.7c0-0.9,0-2.5-2.1-2.5
		c-1.3,0-2,0.7-2,1.8v0.1l-1.7-0.1c0-0.5,0.3-3.1,3.6-3.1c0.6,0,1.6,0.1,2.4,0.6c1.3,0.8,1.4,1.7,1.4,3.4v3.3c0,0.6,0,1.1,0.7,1.1
		c0.2,0,0.3,0,0.5-0.1v1.3c-0.5,0.2-0.8,0.2-1,0.2c-0.1,0-0.7,0-1-0.2c-0.4-0.3-0.6-0.9-0.6-1.2c-0.4,0.5-1.4,1.5-3.2,1.5
		c-1.9,0-3.2-1.1-3.2-2.7c0-0.4,0.1-1.4,1-2c1-0.7,2.6-1,3.8-1.1l1.4-0.1L120.4,345.7L120.4,345.7z M117,347.8
		c-0.3,0.1-1.2,0.5-1.2,1.4c0,0.7,0.5,1.4,1.8,1.4c0.9,0,2.8-0.4,2.8-2.8v-0.7C119.7,347.2,117.8,347.5,117,347.8L117,347.8z
		 M131.5,342.3l-4,11.2c-0.8,2.1-1.3,2.9-2.9,2.9c-0.3,0-0.8,0-1.4-0.2v-1.4c0.2,0.1,0.6,0.2,1.1,0.2c0.9,0,1.3-0.4,1.8-2l0.4-1.2
		l-3.2-9.5h1.7l2.4,7.5l2.5-7.5H131.5z M143.2,345.7c0-0.9,0-2.5-2.1-2.5c-1.3,0-2,0.7-2,1.8v0.1l-1.7-0.1c0-0.5,0.3-3.1,3.6-3.1
		c0.6,0,1.6,0.1,2.4,0.6c1.3,0.8,1.4,1.7,1.4,3.4v3.3c0,0.6,0,1.1,0.7,1.1c0.2,0,0.3,0,0.5-0.1v1.3c-0.5,0.2-0.8,0.2-1,0.2
		c-0.1,0-0.7,0-1-0.2c-0.4-0.3-0.6-0.9-0.6-1.2c-0.4,0.5-1.4,1.5-3.2,1.5c-1.9,0-3.2-1.1-3.2-2.7c0-0.4,0.1-1.4,1-2
		c1-0.7,2.6-1,3.8-1.1l1.4-0.1L143.2,345.7L143.2,345.7z M139.8,347.8c-0.3,0.1-1.2,0.5-1.2,1.4c0,0.7,0.5,1.4,1.8,1.4
		c0.9,0,2.8-0.4,2.8-2.8v-0.7C142.4,347.2,140.5,347.5,139.8,347.8L139.8,347.8z M153.3,351.7v-6.2c0-1.5-1-2-2.1-2
		c-1.3,0-2.5,1-2.5,2.6v5.6H147v-9.4h1.6v1.4c0.4-0.7,1.3-1.7,3-1.7c0.4,0,1.8,0.1,2.7,1.3c0.5,0.8,0.6,1.6,0.6,2.5v6h-1.6
		L153.3,351.7z M164.1,351.7v-1.2c-0.5,0.6-1.4,1.5-3.2,1.5c-2.8,0-4.4-2.1-4.4-5.1c0-3.7,2.4-5,4.3-5c1.7,0,2.9,1,3.3,1.5v-6h1.6
		v14.2h-1.6L164.1,351.7z M161.2,350.6c1.4,0,2.9-0.8,2.9-3.7c0-1.9-1.1-3.4-2.9-3.4c-2.2,0-3,1.8-3,3.6
		C158.2,348.7,158.9,350.6,161.2,350.6z M172.8,351.7v-14.2h1.5v14.2H172.8z M176.5,339.4v-1.8h1.5v1.8H176.5z M176.5,351.7v-9.4
		h1.5v9.5h-1.5V351.7z M183.9,351.7h-1.4l-3.5-9.4h1.7l2.5,7.2l2.5-7.2h1.6L183.9,351.7L183.9,351.7z M189.5,347.4
		c0,1.5,0.8,3.4,3.1,3.4c1.7,0,2.3-1.3,2.5-2.2l1.6,0.2c-0.2,0.7-1.1,3.2-4.3,3.2c-2.3,0-4.6-1.4-4.6-5.1c0-3.6,2.6-4.9,4.6-4.9
		c2.1,0,4.3,1.4,4.3,5.1v0.3H189.5z M195,346.1c0-1.6-1.1-2.9-2.7-2.9c-1.7,0-2.5,1.4-2.7,2.9H195L195,346.1z M-107.7,366.1
		c2.2,0,4.5,1.5,4.5,4.9c0,3.4-2.1,5.1-4.6,5.1c-2.6,0-4.6-1.8-4.6-5C-112.5,369.6-111.8,366.1-107.7,366.1z M-107.8,374.8
		c1.9,0,2.9-1.5,2.9-4c0-1.6-0.6-3.5-2.8-3.5c-3,0-3,3.2-3,3.8C-110.7,372.3-110.4,374.8-107.8,374.8z M-100,366.4v1.7
		c0.2-0.4,0.5-0.8,0.9-1.1c0.4-0.3,1.1-0.8,2.3-0.8v1.7c-0.2,0-0.4-0.1-0.6-0.1c-1.1,0-2.1,0.6-2.5,1.8c-0.1,0.5-0.1,0.8-0.1,1.7
		v4.4h-1.6v-9.5h1.6V366.4z M-83.8,375.8v-1.2c-0.5,0.6-1.4,1.5-3.2,1.5c-2.8,0-4.4-2.1-4.4-5.1c0-3.7,2.4-5,4.3-5
		c1.7,0,2.9,1,3.3,1.5v-6h1.6v14.2h-1.6V375.8z M-86.7,374.7c1.4,0,2.9-0.8,2.9-3.7c0-1.9-1.1-3.4-2.9-3.4c-2.2,0-3,1.8-3,3.6
		C-89.7,372.8-89,374.7-86.7,374.7L-86.7,374.7z M-80,363.5v-1.8h1.5v1.8H-80z M-80,375.8v-9.5h1.5v9.5H-80z M-75.2,371.5
		c0,1.5,0.8,3.4,3.1,3.4c1.7,0,2.3-1.3,2.5-2.2l1.6,0.2c-0.2,0.7-1.1,3.2-4.3,3.2c-2.3,0-4.6-1.4-4.6-5.1c0-3.6,2.6-4.9,4.6-4.9
		c2.1,0,4.3,1.4,4.3,5.1v0.3C-68,371.5-75.2,371.5-75.2,371.5z M-69.8,370.2c0-1.6-1.1-2.9-2.7-2.9c-1.7,0-2.5,1.4-2.7,2.9H-69.8z
		 M-59.9,361.6v6c0.7-1.1,2-1.6,3.3-1.6c2.4,0,4.4,1.8,4.4,5c0,2.8-1.4,5-4.4,5c-1.8,0-2.8-0.9-3.2-1.5v1.2h-1.6v-14.2L-59.9,361.6
		L-59.9,361.6z M-57,374.7c1.2,0,2.9-0.8,2.9-3.8c0-2.2-1.4-3.4-2.9-3.4c-1.3,0-3,0.8-3,3.6C-60,372.7-59.2,374.7-57,374.7
		L-57,374.7z M-43.5,366.4l-4,11.2c-0.8,2.1-1.3,2.9-2.9,2.9c-0.3,0-0.8,0-1.4-0.2v-1.4c0.2,0.1,0.6,0.2,1.1,0.2
		c0.9,0,1.3-0.4,1.8-2l0.4-1.2l-3.2-9.5h1.7l2.4,7.5l2.5-7.5H-43.5z M-30.3,366.4l-4,11.2c-0.8,2.1-1.3,2.9-2.9,2.9
		c-0.3,0-0.8,0-1.4-0.2v-1.4c0.2,0.1,0.6,0.2,1.1,0.2c0.9,0,1.3-0.4,1.8-2l0.4-1.2l-3.2-9.5h1.7l2.4,7.5l2.5-7.5H-30.3z M-25,366.1
		c2.2,0,4.5,1.5,4.5,4.9c0,3.4-2.1,5.1-4.6,5.1c-2.6,0-4.6-1.8-4.6-5C-29.8,369.6-29.1,366.1-25,366.1z M-25.2,374.8
		c1.9,0,2.9-1.5,2.9-4c0-1.6-0.6-3.5-2.8-3.5c-3,0-3,3.2-3,3.8C-28,372.3-27.7,374.8-25.2,374.8z M-12.7,375.8v-1.4
		c-0.7,1-2,1.7-3.2,1.7c-0.3,0-1.8-0.1-2.5-1.2c-0.4-0.7-0.5-1.6-0.5-2.4v-6.1h1.6v5.4c0,1,0,1.4,0.2,1.9c0.2,0.4,0.7,0.9,1.7,0.9
		c0.4,0,1.6-0.1,2.2-1.1c0.5-0.7,0.5-1.5,0.5-2.3v-4.8h1.6v9.5L-12.7,375.8L-12.7,375.8z M-7.4,366.4v1.7c0.2-0.4,0.5-0.8,0.9-1.1
		c0.4-0.3,1.1-0.8,2.3-0.8v1.7c-0.2,0-0.4-0.1-0.6-0.1c-1.1,0-2.1,0.6-2.5,1.8c-0.1,0.5-0.1,0.8-0.1,1.7v4.4H-9v-9.5h1.6V366.4z
		 M3.9,373.8c0,0.7,0.2,0.9,0.7,0.9c0.2,0,0.6-0.1,1-0.2v1.3c-0.1,0-0.9,0.2-1.5,0.2c-1.6,0-1.8-0.6-1.8-1.7v-6.6H0.8v-1.3h1.5v-3
		h1.6v3h1.7v1.3H3.9V373.8z M11.4,366.1c2.2,0,4.5,1.5,4.5,4.9c0,3.4-2.1,5.1-4.6,5.1c-2.6,0-4.6-1.8-4.6-5
		C6.6,369.6,7.3,366.1,11.4,366.1L11.4,366.1z M11.2,374.8c1.9,0,2.9-1.5,2.9-4c0-1.6-0.6-3.5-2.8-3.5c-3,0-3,3.2-3,3.8
		C8.4,372.3,8.7,374.8,11.2,374.8L11.2,374.8z M17.1,370.5V369h5.6v1.5H17.1z M31.5,375.8v-1.2c-0.5,0.6-1.4,1.5-3.2,1.5
		c-2.8,0-4.4-2.1-4.4-5.1c0-3.7,2.4-5,4.3-5c1.7,0,2.9,1,3.3,1.5v-6h1.6v14.2h-1.6L31.5,375.8z M28.6,374.7c1.4,0,2.9-0.8,2.9-3.7
		c0-1.9-1.1-3.4-2.9-3.4c-2.2,0-3,1.8-3,3.6C25.6,372.8,26.3,374.7,28.6,374.7L28.6,374.7z M39.5,366.1c2.2,0,4.5,1.5,4.5,4.9
		c0,3.4-2.1,5.1-4.6,5.1c-2.6,0-4.6-1.8-4.6-5C34.7,369.6,35.4,366.1,39.5,366.1L39.5,366.1z M39.3,374.8c1.9,0,2.9-1.5,2.9-4
		c0-1.6-0.6-3.5-2.8-3.5c-3,0-3,3.2-3,3.8C36.4,372.3,36.8,374.8,39.3,374.8L39.3,374.8z M50.5,375.8v-14.2H52v14.2H50.5z
		 M54.2,363.5v-1.8h1.5v1.8H54.2z M54.2,375.8v-9.5h1.5v9.5H54.2z M59,372.5c0,0.6,0.1,1.2,0.5,1.7c0.6,0.6,1.3,0.7,2.1,0.7
		s2.2-0.2,2.2-1.6c0-1.1-1.1-1.3-2-1.5l-0.9-0.2c-2.6-0.5-3.4-1.4-3.4-2.7c0-2.1,2-2.8,3.7-2.8c2,0,3.1,1,3.5,1.7
		c0.4,0.6,0.5,1.2,0.5,1.4l-1.7,0.2c0-0.5,0-0.7-0.1-0.9c-0.2-0.5-1-1.2-2.4-1.2c-1.3,0-1.9,0.8-1.9,1.4c0,0.8,0.8,1.1,2.3,1.5
		l0.9,0.2c1.8,0.4,3.1,1,3.1,2.7c0,1.8-1.7,3-4,3c-3,0-4.1-1.5-4.4-3.4L59,372.5L59,372.5z M69.1,373.8c0,0.7,0.2,0.9,0.7,0.9
		c0.2,0,0.6-0.1,1-0.2v1.3c-0.1,0-0.9,0.2-1.5,0.2c-1.6,0-1.8-0.6-1.8-1.7v-6.6H66v-1.3h1.5v-3h1.6v3h1.7v1.3h-1.7V373.8z
		 M72.3,375.8v-2.3h2v2.3H72.3z M87.2,369.3v6.5h-1.9v-6.5l-5-7.7h2.2l3.7,6l3.8-6h2.2L87.2,369.3z M95.2,366.1
		c2.2,0,4.5,1.5,4.5,4.9c0,3.4-2.1,5.1-4.6,5.1c-2.6,0-4.6-1.8-4.6-5C90.4,369.6,91.1,366.1,95.2,366.1L95.2,366.1z M95,374.8
		c1.9,0,2.9-1.5,2.9-4c0-1.6-0.6-3.5-2.8-3.5c-3,0-3,3.2-3,3.8C92.1,372.3,92.5,374.8,95,374.8L95,374.8z M107.5,375.8v-1.4
		c-0.7,1-2,1.7-3.2,1.7c-0.3,0-1.8-0.1-2.5-1.2c-0.4-0.7-0.5-1.6-0.5-2.4v-6.1h1.6v5.4c0,1,0,1.4,0.2,1.9c0.2,0.4,0.7,0.9,1.7,0.9
		c0.4,0,1.6-0.1,2.2-1.1c0.5-0.7,0.5-1.5,0.5-2.3v-4.8h1.6v9.5L107.5,375.8L107.5,375.8z M113.2,361.6v1c0,1.4-0.2,2.9-0.8,4.3h-0.9
		c0.3-1,0.7-2.1,0.7-3.1h-0.9v-2.2H113.2z M116.9,366.4v1.7c0.2-0.4,0.5-0.8,0.9-1.1c0.4-0.3,1.1-0.8,2.3-0.8v1.7
		c-0.2,0-0.4-0.1-0.6-0.1c-1.1,0-2.1,0.6-2.5,1.8c-0.1,0.5-0.1,0.8-0.1,1.7v4.4h-1.6v-9.5h1.6L116.9,366.4z M122.3,371.5
		c0,1.5,0.8,3.4,3.1,3.4c1.7,0,2.3-1.3,2.5-2.2l1.6,0.2c-0.2,0.7-1.1,3.2-4.3,3.2c-2.3,0-4.6-1.4-4.6-5.1c0-3.6,2.6-4.9,4.6-4.9
		c2.1,0,4.3,1.4,4.3,5.1v0.3H122.3L122.3,371.5z M127.7,370.2c0-1.6-1.1-2.9-2.7-2.9c-1.7,0-2.5,1.4-2.7,2.9H127.7z M141.6,369.8
		c0-0.9,0-2.5-2.1-2.5c-1.3,0-2,0.7-2,1.8v0.1l-1.7-0.1c0-0.5,0.3-3.1,3.6-3.1c0.6,0,1.6,0.1,2.4,0.6c1.3,0.8,1.4,1.7,1.4,3.4v3.3
		c0,0.6,0,1.1,0.7,1.1c0.2,0,0.3,0,0.5-0.1v1.3c-0.5,0.2-0.8,0.2-1,0.2c-0.1,0-0.7,0-1-0.2c-0.4-0.3-0.6-0.9-0.6-1.2
		c-0.4,0.5-1.4,1.5-3.2,1.5c-1.9,0-3.2-1.1-3.2-2.7c0-0.4,0.1-1.4,1-2c1-0.7,2.6-1,3.8-1.1l1.4-0.1L141.6,369.8L141.6,369.8z
		 M138.2,371.9c-0.3,0.1-1.2,0.5-1.2,1.4c0,0.7,0.5,1.4,1.8,1.4c0.9,0,2.8-0.4,2.8-2.8v-0.7C140.9,371.3,139,371.6,138.2,371.9
		L138.2,371.9z M145.5,375.8v-14.2h1.5v14.2H145.5z M149.2,375.8v-14.2h1.5v14.2H149.2z M163.4,369.8c0-0.9,0-2.5-2.1-2.5
		c-1.3,0-2,0.7-2,1.8v0.1l-1.7-0.1c0-0.5,0.3-3.1,3.6-3.1c0.6,0,1.6,0.1,2.4,0.6c1.3,0.8,1.4,1.7,1.4,3.4v3.3c0,0.6,0,1.1,0.7,1.1
		c0.2,0,0.3,0,0.5-0.1v1.3c-0.5,0.2-0.8,0.2-1,0.2c-0.1,0-0.7,0-1-0.2c-0.4-0.3-0.6-0.9-0.6-1.2c-0.4,0.5-1.4,1.5-3.2,1.5
		c-1.9,0-3.2-1.1-3.2-2.7c0-0.4,0.1-1.4,1-2c1-0.7,2.6-1,3.8-1.1l1.4-0.1L163.4,369.8L163.4,369.8z M160,371.9
		c-0.3,0.1-1.2,0.5-1.2,1.4c0,0.7,0.5,1.4,1.8,1.4c0.9,0,2.8-0.4,2.8-2.8v-0.7C162.7,371.3,160.8,371.6,160,371.9L160,371.9z
		 M168.9,361.6v6c0.7-1.1,2-1.6,3.3-1.6c2.4,0,4.4,1.8,4.4,5c0,2.8-1.4,5-4.4,5c-1.8,0-2.8-0.9-3.2-1.5v1.2h-1.6v-14.2L168.9,361.6
		L168.9,361.6z M171.9,374.7c1.2,0,2.9-0.8,2.9-3.8c0-2.2-1.4-3.4-2.9-3.4c-1.3,0-3,0.8-3,3.6C168.9,372.7,169.6,374.7,171.9,374.7
		L171.9,374.7z M182.4,366.1c2.2,0,4.5,1.5,4.5,4.9c0,3.4-2.1,5.1-4.6,5.1c-2.6,0-4.6-1.8-4.6-5
		C177.6,369.6,178.3,366.1,182.4,366.1z M182.2,374.8c1.9,0,2.9-1.5,2.9-4c0-1.6-0.6-3.5-2.8-3.5c-3,0-3,3.2-3,3.8
		C179.3,372.3,179.7,374.8,182.2,374.8z M194.7,375.8v-1.4c-0.7,1-2,1.7-3.2,1.7c-0.3,0-1.8-0.1-2.5-1.2c-0.4-0.7-0.5-1.6-0.5-2.4
		v-6.1h1.6v5.4c0,1,0,1.4,0.2,1.9c0.2,0.4,0.7,0.9,1.7,0.9c0.4,0,1.6-0.1,2.2-1.1c0.5-0.7,0.5-1.5,0.5-2.3v-4.8h1.6v9.5L194.7,375.8
		L194.7,375.8z M200.6,373.8c0,0.7,0.2,0.9,0.7,0.9c0.2,0,0.6-0.1,1-0.2v1.3c-0.1,0-0.9,0.2-1.5,0.2c-1.6,0-1.8-0.6-1.8-1.7v-6.6
		h-1.5v-1.3h1.5v-3h1.6v3h1.7v1.3h-1.7L200.6,373.8L200.6,373.8z M-74.9,397.8c0,0.7,0.2,0.9,0.7,0.9c0.2,0,0.6-0.1,1-0.2v1.3
		c-0.1,0-0.9,0.2-1.5,0.2c-1.6,0-1.8-0.6-1.8-1.7v-6.6H-78v-1.3h1.5v-3h1.6v3h1.7v1.3h-1.7V397.8z M-65.4,399.9v-5.6
		c0-0.5,0-1.1-0.2-1.6c-0.3-0.8-1-1.2-1.9-1.2c-0.4,0-1.5,0.1-2.1,1.2c-0.4,0.8-0.4,1.6-0.4,2.5v4.7h-1.6v-14.2h1.6v5.7
		c1.1-1.2,2.2-1.3,2.9-1.3c2.9,0,3.4,2,3.4,3.6v6.1h-1.7L-65.4,399.9z M-60.5,395.6c0,1.5,0.8,3.4,3.1,3.4c1.7,0,2.3-1.3,2.5-2.2
		l1.6,0.2c-0.2,0.7-1.1,3.2-4.3,3.2c-2.3,0-4.6-1.4-4.6-5.1c0-3.6,2.6-4.9,4.6-4.9c2.1,0,4.3,1.4,4.3,5.1v0.3H-60.5z M-55.1,394.3
		c0-1.6-1.1-2.9-2.7-2.9c-1.7,0-2.5,1.4-2.7,2.9C-60.5,394.3-55.1,394.3-55.1,394.3z M-38.2,396.5c-0.5,2.7-2.3,3.7-4.5,3.7
		c-3,0-4.7-2.1-4.7-5c0-2.8,1.5-5.1,4.6-5.1c2.8,0,4.1,1.8,4.4,3.2l-1.8,0.2c-0.2-1.4-1.2-2.2-2.6-2.2s-2.8,1-2.8,3.8
		c0,2.2,1,3.8,3,3.8c1.8,0,2.5-1.1,2.7-2.6L-38.2,396.5L-38.2,396.5z M-32.6,390.1c2.2,0,4.5,1.5,4.5,4.9c0,3.4-2.1,5.1-4.6,5.1
		c-2.6,0-4.6-1.8-4.6-5C-37.4,393.6-36.7,390.1-32.6,390.1z M-32.8,398.9c1.9,0,2.9-1.5,2.9-4c0-1.6-0.6-3.5-2.8-3.5
		c-3,0-3,3.2-3,3.8C-35.7,396.4-35.3,398.9-32.8,398.9z M-20.3,399.9v-6.2c0-1.5-1-2-2.1-2c-1.3,0-2.5,1-2.5,2.6v5.6h-1.6v-9.5h1.6
		v1.4c0.4-0.7,1.3-1.7,3-1.7c0.4,0,1.8,0.1,2.7,1.3c0.5,0.8,0.6,1.6,0.6,2.5v6L-20.3,399.9L-20.3,399.9z M-12.7,399.9h-1.4l-3.5-9.5
		h1.7l2.5,7.2l2.5-7.2h1.6C-9.3,390.4-12.7,399.9-12.7,399.9z M-7.1,395.6c0,1.5,0.8,3.4,3.1,3.4c1.7,0,2.3-1.3,2.5-2.2l1.6,0.2
		c-0.2,0.7-1.1,3.2-4.3,3.2c-2.3,0-4.6-1.4-4.6-5.1c0-3.6,2.6-4.9,4.6-4.9c2.1,0,4.3,1.4,4.3,5.1v0.3C0.1,395.6-7.1,395.6-7.1,395.6
		z M-1.7,394.3c0-1.6-1.1-2.9-2.7-2.9c-1.7,0-2.5,1.4-2.7,2.9H-1.7z M7.9,399.9v-6.2c0-1.5-1-2-2.1-2c-1.3,0-2.5,1-2.5,2.6v5.6H1.7
		v-9.5h1.6v1.4c0.4-0.7,1.3-1.7,3-1.7c0.4,0,1.8,0.1,2.7,1.3c0.5,0.8,0.6,1.6,0.6,2.5v6L7.9,399.9L7.9,399.9z M11.7,387.6v-1.8h1.5
		v1.8H11.7z M11.7,399.9v-9.5h1.5v9.5H11.7z M16.5,395.6c0,1.5,0.8,3.4,3.1,3.4c1.7,0,2.3-1.3,2.5-2.2l1.6,0.2
		c-0.2,0.7-1.1,3.2-4.3,3.2c-2.3,0-4.6-1.4-4.6-5.1c0-3.6,2.6-4.9,4.6-4.9c2.1,0,4.3,1.4,4.3,5.1v0.3H16.5L16.5,395.6z M21.9,394.3
		c0-1.6-1.1-2.9-2.7-2.9c-1.7,0-2.5,1.4-2.7,2.9H21.9z M31.5,399.9v-6.2c0-1.5-1-2-2.1-2c-1.3,0-2.5,1-2.5,2.6v5.6h-1.6v-9.5h1.6
		v1.4c0.4-0.7,1.3-1.7,3-1.7c0.4,0,1.8,0.1,2.7,1.3c0.5,0.8,0.6,1.6,0.6,2.5v6L31.5,399.9L31.5,399.9z M43.8,396.5
		c-0.5,2.7-2.3,3.7-4.5,3.7c-3,0-4.7-2.1-4.7-5c0-2.8,1.5-5.1,4.6-5.1c2.8,0,4.1,1.8,4.4,3.2l-1.8,0.2c-0.2-1.4-1.2-2.2-2.6-2.2
		c-1.4,0-2.8,1-2.8,3.8c0,2.2,1,3.8,3,3.8c1.8,0,2.5-1.1,2.7-2.6L43.8,396.5L43.8,396.5z M46.3,395.6c0,1.5,0.8,3.4,3.1,3.4
		c1.7,0,2.3-1.3,2.5-2.2l1.6,0.2c-0.2,0.7-1.1,3.2-4.3,3.2c-2.3,0-4.6-1.4-4.6-5.1c0-3.6,2.6-4.9,4.6-4.9c2.1,0,4.3,1.4,4.3,5.1v0.3
		H46.3L46.3,395.6z M51.8,394.3c0-1.6-1.1-2.9-2.7-2.9c-1.7,0-2.5,1.4-2.7,2.9H51.8z M64.3,390.1c2.2,0,4.5,1.5,4.5,4.9
		c0,3.4-2.1,5.1-4.6,5.1c-2.6,0-4.6-1.8-4.6-5C59.5,393.6,60.2,390.1,64.3,390.1L64.3,390.1z M64.1,398.9c1.9,0,2.9-1.5,2.9-4
		c0-1.6-0.6-3.5-2.8-3.5c-3,0-3,3.2-3,3.8C61.3,396.4,61.6,398.9,64.1,398.9L64.1,398.9z M74.2,390.4v1.3h-1.8v8.1h-1.6v-8.1h-1.6
		v-1.3h1.6v-0.8c0-1.3,0-1.9,0.2-2.5c0.5-1.3,1.9-1.3,2.2-1.3c0.2,0,0.6,0,1.2,0.1v1.3c-0.1,0-0.5-0.1-0.9-0.1
		c-0.8,0-1.2,0.5-1.2,1.5v1.8H74.2L74.2,390.4z M91.6,399.9v-6.3c0-1.7-1.1-1.9-1.7-1.9c-0.9,0-2,0.7-2.3,1.6
		c-0.1,0.3-0.1,0.7-0.1,1.4v5.3h-1.6v-6.2c0-1.9-1.2-2.1-1.7-2.1c-0.8,0-1.9,0.6-2.2,1.4c-0.1,0.3-0.1,0.6-0.1,1.2v5.6h-1.5v-9.5
		h1.5v1.3c0.8-0.9,1.7-1.6,2.8-1.6c0.3,0,1.3,0.1,2,0.9l0.6,0.9c0.6-0.5,1.5-1.7,3.2-1.7c1.2,0,1.9,0.7,2.2,1
		c0.6,0.7,0.6,1.6,0.6,2.5v6.2L91.6,399.9L91.6,399.9z M99.5,390.1c2.2,0,4.5,1.5,4.5,4.9c0,3.4-2.1,5.1-4.6,5.1
		c-2.6,0-4.6-1.8-4.6-5C94.7,393.6,95.4,390.1,99.5,390.1L99.5,390.1z M99.3,398.9c1.9,0,2.9-1.5,2.9-4c0-1.6-0.6-3.5-2.8-3.5
		c-3,0-3,3.2-3,3.8C96.5,396.4,96.8,398.9,99.3,398.9L99.3,398.9z M107.2,385.7v6c0.7-1.1,2-1.6,3.3-1.6c2.4,0,4.4,1.8,4.4,5
		c0,2.8-1.4,5-4.4,5c-1.8,0-2.8-0.9-3.2-1.5v1.2h-1.6v-14.2h1.5V385.7z M110.2,398.8c1.2,0,2.9-0.8,2.9-3.8c0-2.2-1.4-3.4-2.9-3.4
		c-1.3,0-3,0.8-3,3.6C107.2,396.8,107.9,398.8,110.2,398.8L110.2,398.8z M116.5,387.6v-1.8h1.5v1.8H116.5z M116.5,399.9v-9.5h1.5
		v9.5H116.5z M120.1,399.9v-14.2h1.5v14.2H120.1z M124.9,395.6c0,1.5,0.8,3.4,3.1,3.4c1.7,0,2.3-1.3,2.5-2.2l1.6,0.2
		c-0.2,0.7-1.1,3.2-4.3,3.2c-2.3,0-4.6-1.4-4.6-5.1c0-3.6,2.6-4.9,4.6-4.9c2.1,0,4.3,1.4,4.3,5.1v0.3H124.9L124.9,395.6z
		 M130.4,394.3c0-1.6-1.1-2.9-2.7-2.9c-1.7,0-2.5,1.4-2.7,2.9H130.4z M144.2,393.9c0-0.9,0-2.5-2.1-2.5c-1.3,0-2,0.7-2,1.8v0.1
		l-1.7-0.1c0-0.5,0.3-3.1,3.6-3.1c0.6,0,1.6,0.1,2.4,0.6c1.3,0.8,1.4,1.7,1.4,3.4v3.3c0,0.6,0,1.1,0.7,1.1c0.2,0,0.3,0,0.5-0.1v1.3
		c-0.5,0.2-0.8,0.2-1,0.2c-0.1,0-0.7,0-1-0.2c-0.4-0.3-0.6-0.9-0.6-1.2c-0.4,0.5-1.4,1.5-3.2,1.5c-1.9,0-3.2-1.1-3.2-2.7
		c0-0.4,0.1-1.4,1-2c1-0.7,2.6-1,3.8-1.1l1.4-0.1L144.2,393.9L144.2,393.9z M140.9,396c-0.3,0.1-1.2,0.5-1.2,1.4
		c0,0.7,0.5,1.4,1.8,1.4c0.9,0,2.8-0.4,2.8-2.8v-0.7C143.5,395.4,141.6,395.6,140.9,396L140.9,396z M154.4,399.9v-6.2
		c0-1.5-1-2-2.1-2c-1.3,0-2.5,1-2.5,2.6v5.6h-1.6v-9.5h1.6v1.4c0.4-0.7,1.3-1.7,3-1.7c0.4,0,1.8,0.1,2.7,1.3
		c0.5,0.8,0.6,1.6,0.6,2.5v6L154.4,399.9L154.4,399.9z M165.2,399.9v-1.2c-0.5,0.6-1.4,1.5-3.2,1.5c-2.8,0-4.4-2.1-4.4-5.1
		c0-3.7,2.4-5,4.3-5c1.7,0,2.9,1,3.3,1.5v-6h1.6v14.2h-1.6L165.2,399.9z M162.2,398.8c1.4,0,2.9-0.8,2.9-3.7c0-1.9-1.1-3.4-2.9-3.4
		c-2.2,0-3,1.8-3,3.6C159.3,396.9,160,398.8,162.2,398.8L162.2,398.8z M-38.2,424v-6.3c0-1.7-1.1-1.9-1.7-1.9c-0.9,0-2,0.7-2.3,1.6
		c-0.1,0.3-0.1,0.7-0.1,1.4v5.3h-1.6v-6.2c0-1.9-1.2-2.1-1.7-2.1c-0.8,0-1.9,0.6-2.2,1.4c-0.1,0.3-0.1,0.6-0.1,1.2v5.6h-1.5v-9.5
		h1.4v1.3c0.8-0.9,1.7-1.6,2.8-1.6c0.3,0,1.3,0.1,2,0.9l0.6,0.9c0.6-0.5,1.5-1.7,3.2-1.7c1.2,0,1.9,0.7,2.2,1
		c0.6,0.7,0.6,1.6,0.6,2.5v6.2L-38.2,424L-38.2,424z M-28.9,418c0-0.9,0-2.5-2.1-2.5c-1.3,0-2,0.7-2,1.8v0.1l-1.7-0.1
		c0-0.5,0.3-3.1,3.6-3.1c0.6,0,1.6,0.1,2.4,0.6c1.3,0.8,1.4,1.7,1.4,3.4v3.3c0,0.6,0,1.1,0.7,1.1c0.2,0,0.3,0,0.5-0.1v1.3
		c-0.5,0.2-0.8,0.2-1,0.2c-0.1,0-0.7,0-1-0.2c-0.4-0.3-0.6-0.9-0.6-1.2c-0.4,0.5-1.4,1.5-3.2,1.5c-1.9,0-3.2-1.1-3.2-2.7
		c0-0.4,0.1-1.4,1-2c1-0.7,2.6-1,3.8-1.1l1.4-0.1L-28.9,418L-28.9,418z M-32.2,420c-0.3,0.1-1.2,0.5-1.2,1.4c0,0.7,0.5,1.4,1.8,1.4
		c0.9,0,2.8-0.4,2.8-2.8v-0.7C-29.6,419.5-31.5,419.7-32.2,420L-32.2,420z M-18.8,424l-3.4-4.5l-1.1,1.2v3.3H-25v-14.2h1.6v8.7
		l3.8-4h2l-3.5,3.7l4.3,5.7h-2L-18.8,424z M-16.2,411.6v-1.8h1.5v1.8H-16.2z M-16.2,424v-9.5h1.5v9.5H-16.2z M-6.4,424v-6.2
		c0-1.5-1-2-2.1-2c-1.3,0-2.5,1-2.5,2.6v5.6h-1.6v-9.5h1.6v1.4c0.4-0.7,1.3-1.7,3-1.7c0.4,0,1.8,0.1,2.7,1.3
		c0.5,0.8,0.6,1.6,0.6,2.5v6H-6.4L-6.4,424z M6,424.1c0,3.5-2.2,4.4-4.4,4.4s-4.1-1.1-4.3-3.5h1.8c0,1.5,1.1,2.2,2.6,2.2
		c2,0,2.6-1.1,2.6-2.8v-1.8c-1.1,1.5-2.3,1.7-3.1,1.7c-2.4,0-4.4-1.8-4.4-5c0-2.2,1-5.1,4.4-5.1c1.2,0,2.2,0.5,3.1,1.6v-1.3H6
		L6,424.1L6,424.1z M1.4,415.7c-1.6,0-2.9,1.2-2.9,3.6c0,2,0.9,3.6,3,3.6s2.9-1.7,2.9-3.7C4.4,416.9,3.2,415.7,1.4,415.7L1.4,415.7z
		 M20.1,428.5v-5.6c-0.9,1.1-2,1.4-3.3,1.4c-2.4,0-4.3-1.5-4.3-4.9c0-3.9,2.3-5.2,4.3-5.2c0.6,0,2.2,0.1,3.2,1.7v-1.4h1.6v14H20.1z
		 M17.2,415.7c-2.3,0-3,1.7-3,3.7c0,2.6,1.4,3.6,3,3.6c0.5,0,3-0.1,3-3.4C20.2,418.2,19.7,415.7,17.2,415.7L17.2,415.7z M30,424
		v-1.4c-0.7,1-2,1.7-3.2,1.7c-0.3,0-1.8-0.1-2.5-1.2c-0.4-0.7-0.5-1.6-0.5-2.4v-6.1h1.6v5.4c0,1,0,1.4,0.2,1.9
		c0.2,0.4,0.7,0.9,1.7,0.9c0.4,0,1.6-0.1,2.2-1.1c0.5-0.7,0.5-1.5,0.5-2.3v-4.8h1.6v9.5L30,424L30,424z M33.9,411.6v-1.8h1.5v1.8
		H33.9z M33.9,424v-9.5h1.5v9.5H33.9z M46.1,420.6c-0.5,2.7-2.3,3.7-4.5,3.7c-3,0-4.7-2.1-4.7-5c0-2.8,1.5-5.1,4.6-5.1
		c2.8,0,4.1,1.8,4.4,3.2l-1.8,0.2c-0.2-1.4-1.2-2.2-2.6-2.2c-1.4,0-2.8,1-2.8,3.8c0,2.2,1,3.8,3,3.8c1.8,0,2.5-1.1,2.7-2.6
		L46.1,420.6L46.1,420.6z M53.2,424l-3.4-4.5l-1.1,1.2v3.3H47v-14.2h1.6v8.7l3.8-4h2l-3.5,3.7l4.3,5.7h-2L53.2,424z M67.7,424v-1.2
		c-0.5,0.6-1.4,1.5-3.2,1.5c-2.8,0-4.4-2.1-4.4-5.1c0-3.7,2.4-5,4.3-5c1.7,0,2.9,1,3.3,1.5v-6h1.6v14.2h-1.6L67.7,424z M64.8,422.8
		c1.4,0,2.9-0.8,2.9-3.7c0-1.9-1.1-3.4-2.9-3.4c-2.2,0-3,1.8-3,3.6C61.8,420.9,62.5,422.8,64.8,422.8L64.8,422.8z M72.6,419.6
		c0,1.5,0.8,3.4,3.1,3.4c1.7,0,2.3-1.3,2.5-2.2l1.6,0.2c-0.2,0.7-1.1,3.2-4.3,3.2c-2.3,0-4.6-1.4-4.6-5.1c0-3.6,2.6-4.9,4.6-4.9
		c2.1,0,4.3,1.4,4.3,5.1v0.3H72.6L72.6,419.6z M78,418.4c0-1.6-1.1-2.9-2.7-2.9c-1.7,0-2.5,1.4-2.7,2.9H78z M90,420.6
		c-0.5,2.7-2.3,3.7-4.5,3.7c-3,0-4.7-2.1-4.7-5c0-2.8,1.5-5.1,4.6-5.1c2.8,0,4.1,1.8,4.4,3.2l-1.8,0.2c-0.2-1.4-1.2-2.2-2.6-2.2
		c-1.4,0-2.8,1-2.8,3.8c0,2.2,1,3.8,3,3.8c1.8,0,2.5-1.1,2.7-2.6L90,420.6L90,420.6z M91.4,411.6v-1.8h1.5v1.8H91.4z M91.4,424v-9.5
		h1.5v9.5H91.4z M96.1,420.7c0,0.6,0.1,1.2,0.5,1.7c0.6,0.6,1.3,0.7,2.1,0.7s2.2-0.2,2.2-1.6c0-1.1-1.1-1.3-2-1.5l-0.9-0.2
		c-2.6-0.5-3.4-1.4-3.4-2.7c0-2.1,2-2.8,3.7-2.8c2,0,3.1,1,3.5,1.7c0.4,0.6,0.5,1.2,0.5,1.4l-1.7,0.2c0-0.5,0-0.7-0.1-0.9
		c-0.2-0.5-1-1.2-2.4-1.2c-1.3,0-1.9,0.8-1.9,1.4c0,0.8,0.8,1.1,2.3,1.5l0.9,0.2c1.8,0.4,3.1,1,3.1,2.7c0,1.8-1.7,3-4,3
		c-3,0-4.1-1.5-4.4-3.4L96.1,420.7L96.1,420.7z M104.2,411.6v-1.8h1.5v1.8H104.2z M104.2,424v-9.5h1.5v9.5H104.2z M112,414.2
		c2.2,0,4.5,1.5,4.5,4.9s-2.1,5.1-4.6,5.1c-2.6,0-4.6-1.8-4.6-5C107.3,417.7,107.9,414.2,112,414.2L112,414.2z M111.9,423
		c1.9,0,2.9-1.5,2.9-4c0-1.6-0.6-3.5-2.8-3.5c-3,0-3,3.2-3,3.8C109,420.5,109.3,423,111.9,423L111.9,423z M124.4,424v-6.2
		c0-1.5-1-2-2.1-2c-1.3,0-2.5,1-2.5,2.6v5.6h-1.6v-9.5h1.6v1.4c0.4-0.7,1.3-1.7,3-1.7c0.4,0,1.8,0.1,2.7,1.3
		c0.5,0.8,0.6,1.6,0.6,2.5v6H124.4L124.4,424z M129.2,420.7c0,0.6,0.1,1.2,0.5,1.7c0.6,0.6,1.3,0.7,2.1,0.7s2.2-0.2,2.2-1.6
		c0-1.1-1.1-1.3-2-1.5l-0.9-0.2c-2.6-0.5-3.4-1.4-3.4-2.7c0-2.1,2-2.8,3.7-2.8c2,0,3.1,1,3.5,1.7c0.4,0.6,0.5,1.2,0.5,1.4l-1.7,0.2
		c0-0.5,0-0.7-0.1-0.9c-0.2-0.5-1-1.2-2.4-1.2c-1.3,0-1.9,0.8-1.9,1.4c0,0.8,0.8,1.1,2.3,1.5l0.9,0.2c1.8,0.4,3.1,1,3.1,2.7
		c0,1.8-1.7,3-4,3c-3,0-4.1-1.5-4.4-3.4L129.2,420.7L129.2,420.7z M137.2,424v-2.3h2v2.3H137.2z"/>
</g>
<g>
	<path class="st1" d="M-33.9,220.4l1.2,4.9c0.4,1.6,0.5,2.8,0.6,4h0.2c0.1-0.7,0.2-2.3,0.7-4.3l1.3-4.6h2.8l-3.5,12.1v8.8h-3v-8.7
		l-3.1-12.2C-36.7,220.4-33.9,220.4-33.9,220.4z M-25.8,226.1c0-1.9,0.1-3.3,1-4.4c0.9-1,2.1-1.5,3.4-1.5c1.2,0,2.3,0.3,3.1,1.2
		c1.2,1.2,1.2,2.7,1.2,5.2v9.9c0,1.5-0.1,4.9-4.6,4.9c-0.6,0-2.7,0-3.7-2c-0.5-0.9-0.5-2-0.5-3L-25.8,226.1L-25.8,226.1z
		 M-19.8,225.9c0-1.8,0-3.2-1.6-3.2c-0.2,0-1.2,0-1.5,1c-0.1,0.4-0.1,0.9-0.1,2.2v11.2c0,1,0.1,2.2,1.6,2.2c1.6,0,1.7-1.4,1.7-2.8
		L-19.8,225.9L-19.8,225.9z M-13.8,220.4h2.7v16.2c0,1.4,0,2.8,1.7,2.8s1.7-1.4,1.7-3v-16H-5v15.9c0,1.5,0,5.4-4.5,5.4
		c-4.3,0-4.3-3.8-4.3-4.9L-13.8,220.4L-13.8,220.4z M-2.9,220.4h2.4v3.2c0,2.8-0.4,3.6-2.2,4.6v-0.6c0.9-0.6,1.1-1.2,1.1-3.3h-1.2
		v-3.9H-2.9z M7.6,220.4h2.7l-3.2,20.9H3.9l-3.2-20.9h2.8l1.6,12c0.3,2.4,0.4,2.6,0.4,4.6h0.3c0-1.9,0-2,0.4-4.9L7.6,220.4z
		 M12.8,220.4h6.9v2.6h-4.1v6.1h3.7v2.6h-3.7v7h4.1v2.6h-6.9V220.4z M27.6,220.4h6.9v2.6h-4.1v6.1h3.7v2.6h-3.7v7h4.1v2.6h-6.9
		V220.4z M42.1,220.4l3.2,20.9h-2.7l-0.5-3.8H39l-0.5,3.8h-2.7l2.9-20.9H42.1L42.1,220.4z M40.3,224.4c-0.1,2.7-0.1,3-0.1,3.4
		l-0.9,7.2h2.5l-1-7.3c-0.1-0.8-0.1-1.6-0.2-3.3C40.6,224.4,40.3,224.4,40.3,224.4z M47.3,220.4h4.5c3.4,0,3.8,0.9,3.8,5.1
		c0,3.7-0.1,5.2-2.3,5.2v0.1c2,0.2,2.2,1.4,2.2,4.1v2.3c0,2.5,0.1,2.9,0.5,4.1h-2.9c-0.2-1.2-0.4-2.2-0.4-4.4v-1.5
		c0-0.8,0-2.5-0.4-3.1c-0.3-0.6-0.7-0.6-2.3-0.6v9.6h-2.8L47.3,220.4L47.3,220.4z M50.1,223v6.5h1.3c1.4,0,1.5-0.6,1.5-4.1
		c0-2.3-0.1-2.4-1.3-2.4H50.1z M61.6,220.4l3.1,13.4c0.2,0.8,0.3,1.4,0.4,2.1h0.2l-0.3-3l-0.1-2l-0.1-10.5h2.6v20.9h-3L61,225.6
		h-0.2l0.1,1.8l0.1,1.9l0.2,12h-2.6v-20.9H61.6z M71.1,220.4H78v2.6h-4.1v6.1h3.7v2.6h-3.7v7H78v2.6h-6.9V220.4z M80.8,220.4h5.1
		c3,0,3.2,1.7,3.2,3.4v13.9c0,2.8-0.7,3.6-3,3.6h-5.3V220.4z M83.6,223v15.8h1.8c0.8,0,0.9-0.5,0.9-1.2v-13.2c0-0.8,0-1.5-1.1-1.5
		L83.6,223L83.6,223z M96.7,220.4h9.2v2.5h-3.3v18.4h-2.8v-18.4h-3.2v-2.5H96.7z M110.1,220.4v8.5h2.6v-8.5h2.8v20.9h-2.8v-9.7h-2.5
		v9.7h-2.8v-20.9H110.1z M119.1,220.4h6.9v2.6h-4v6.1h3.7v2.6H122v7h4.1v2.6h-6.9v-20.9H119.1z"/>
</g>
<g>
	<path class="st1" d="M-105.4,253h10.7c7,0,7.1,2.7,7.1,11.4c0,7,0,9.8-4.6,10v0.3c1.5,0.1,3.8,0.3,4.4,3.4c0.1,0.8,0.2,1.1,0.2,9.3
		c0,9.2-0.5,11.4-8.6,11.4h-9.3L-105.4,253L-105.4,253z M-99.5,272.2c4.4,0,5.1,0,5.6-1.2c0.5-1,0.5-4.7,0.5-6.2
		c0-0.8-0.1-2.1-0.1-3.2c-0.1-1.9-0.3-2.5-0.8-2.8s-0.6-0.3-5.1-0.3L-99.5,272.2L-99.5,272.2z M-99.5,277.2v16h3.1
		c1.8,0,2.3-0.1,2.7-0.9c0.4-0.8,0.4-5.9,0.4-7.1c0-7.1-0.3-7.9-2.8-7.9h-3.4V277.2z M-79.8,253h5.9v35.5c0,3.1,0,6.1,3.7,6.1
		c3.6,0,3.6-3.1,3.6-6.5V253h6v34.8c0,3.2,0,11.8-9.8,11.8c-9.4,0-9.4-8.3-9.4-10.7C-79.8,288.9-79.8,253-79.8,253z M-49,290.5
		c0,1.6,0,4.4,3.1,4.4c2.9,0,2.9-2.9,2.9-5.3c0-4.3-0.8-6.2-4.9-12.3c-3.6-5.3-6.3-9.2-6.3-15.1c0-2.5,0.5-4.5,1.6-6.3
		c1.8-2.9,4.6-3.8,7.7-3.8c5.7,0,7.7,3.1,7.7,7.9v8.2h-5.5v-8.1c0-1.4-0.2-3.1-2.4-3.1c-2.8,0-3.1,2.3-3.1,4.6
		c0,4.7,1.4,6.8,5.9,13.3c2.9,4.4,5.5,8.1,5.5,14c0,3.1-0.8,6-2.1,7.9c-2.1,2.9-5.2,3.1-6.9,3.1c-8.8,0-8.8-7.6-8.8-9.9v-7.7h5.6
		V290.5z M-27.9,253l2.7,10.7c0.8,3.4,1,6.1,1.3,8.8h0.5c0.1-1.5,0.4-5.1,1.6-9.4l2.9-10.1h6.1l-7.6,26.6v19.2H-27v-19.1l-7-26.7
		H-27.9z M3.5,253h10.7c7,0,7.1,2.7,7.1,11.4c0,7,0,9.8-4.6,10v0.3c1.5,0.1,3.8,0.3,4.4,3.4c0.1,0.8,0.2,1.1,0.2,9.3
		c0,9.2-0.5,11.4-8.6,11.4H3.4V253H3.5z M9.4,272.2c4.4,0,5.1,0,5.6-1.2c0.5-1,0.5-4.7,0.5-6.2c0-0.8-0.1-2.1-0.1-3.2
		c-0.1-1.9-0.3-2.5-0.8-2.8s-0.6-0.3-5.1-0.3L9.4,272.2L9.4,272.2z M9.4,277.2v16h3.1c1.8,0,2.3-0.1,2.7-0.9s0.4-5.9,0.4-7.1
		c0-7.1-0.3-7.9-2.8-7.9H9.4V277.2z M29.3,253h15.1v5.8h-9v13.4h8.1v5.7h-8.1v15.3h9v5.8H29.2L29.3,253L29.3,253z M51,253h15.1v5.8
		h-9v13.4h8.1v5.7h-8.1v15.3h9v5.8H51C51,299,51,253,51,253z M83.5,253h10.7c7,0,7.1,2.7,7.1,11.4c0,7,0,9.8-4.6,10v0.3
		c1.5,0.1,3.8,0.3,4.4,3.4c0.1,0.8,0.2,1.1,0.2,9.3c0,9.2-0.5,11.4-8.6,11.4h-9.3V253H83.5z M89.3,272.2c4.4,0,5.1,0,5.6-1.2
		c0.5-1,0.5-4.7,0.5-6.2c0-0.8-0.1-2.1-0.1-3.2c-0.1-1.9-0.3-2.5-0.8-2.8s-0.6-0.3-5.1-0.3L89.3,272.2L89.3,272.2z M89.3,277.2v16
		h3.1c1.8,0,2.3-0.1,2.7-0.9s0.4-5.9,0.4-7.1c0-7.1-0.3-7.9-2.8-7.9h-3.4V277.2z M119.3,253l7.1,45.9h-5.9l-1.2-8.4h-6.9l-1,8.4
		h-5.8L112,253C112,253,119.3,253,119.3,253z M115.4,261.6c-0.2,6-0.2,6.6-0.3,7.4l-2,15.8h5.5l-2.3-15.9c-0.3-1.8-0.3-3.5-0.4-7.3
		C115.9,261.6,115.4,261.6,115.4,261.6z M130.6,253h11.1c6.5,0,7,3.7,7,7.4v30.5c0,6-1.6,7.9-6.5,7.9h-11.6V253z M136.7,258.6v34.6
		h4c1.8,0,1.9-1,1.9-2.5v-28.9c0-1.8-0.1-3.2-2.5-3.2H136.7z M155.7,265.5c0-4,0-6.6,1.7-9.2c2.1-3.4,5.6-3.8,7.5-3.8
		c8.2,0,8.2,6.7,8.2,10.1v4.7h-5.6v-5.1c0-2.6-0.1-4.7-2.8-4.7c-3.1,0-3.1,2.8-3.1,5.1V289c0,3,0,5.5,3,5.5c3.1,0,3.1-2.7,3.1-4.1
		V280H164v-5.6h9.7v24.4h-3.6l-0.5-2.1c-0.8,1-2.1,2.9-5.5,2.9c-8.3,0-8.3-8.1-8.3-11.4v-22.7H155.7z M181.6,253h15.1v5.8h-9v13.4
		h8.1v5.7h-8.1v15.3h9v5.8h-15.2v-46L181.6,253z"/>
</g>
<path class="st2" d="M-128.8,312.9h347.3"/>
<g>
	<path class="st2" d="M-119,221.9h73.7 M-119,241.3h73.7"/>
	<path class="st3" d="M-128.8,231.6h83.5"/>
	<path class="st2" d="M208.7,221.9H135 M208.7,241.3H135"/>
	<path class="st3" d="M218.5,231.6H135"/>
</g>
<path class="st2" d="M-128.8,452.9h347.3"/>
</svg>
