<?xml version="1.0" encoding="utf-8"?>
<!-- Generator: Adobe Illustrator 17.1.0, SVG Export Plug-In . SVG Version: 6.00 Build 0)  -->
<!DOCTYPE svg PUBLIC "-//W3C//DTD SVG 1.1//EN" "http://www.w3.org/Graphics/SVG/1.1/DTD/svg11.dtd">
<svg version="1.1" xmlns="http://www.w3.org/2000/svg" xmlns:xlink="http://www.w3.org/1999/xlink" x="0px" y="0px"
	 viewBox="0 0 675.7 288.6" enable-background="new 0 0 675.7 288.6" xml:space="preserve">
<g id="Layer_1_copy">
	<rect x="0" y="0" fill="#0072CE" width="675.7" height="288.6"/>
</g>
<g id="A">
	<path fill="#939598" stroke="#1C75BC" stroke-width="14.0725" stroke-miterlimit="10" d="M113.6,150.7"/>
	<path fill="#FFFFFF" d="M250,47.3c-2.9-2.1-4.5-2-4.5-2h-36.3c0,0-3.7,0-5.9,1.8c-1.6,1.4-2.6,2.9-2.6,2.9l-35.1,57.8
		c0,0-1.3,2-2,2c-0.8,0-1.9-2-1.9-2l-35.1-57.8c0,0-1-1.6-2.6-2.9c-2.2-1.8-5.9-1.8-5.9-1.8H81.7c0,0-1.6-0.1-4.5,2
		c-2.7,2-2.7,4.9-2.7,4.9v154c0,0,0,2.4,2.3,4.9c2.1,2.2,4.8,2.1,4.8,2.1h31.4c0,0,1.8,0.1,4.7-2.2c2.4-1.9,2.3-4.7,2.3-4.7v-89.1
		l36.3,58c0,0,3.8,6.4,7.2,6.4v0c3.4-0.1,7.2-6.4,7.2-6.4l36.3-58v89.1c0,0-0.2,2.8,2.3,4.7c2.9,2.3,4.7,2.2,4.7,2.2h31.4
		c0,0,2.8,0.1,4.8-2.1c2.3-2.5,2.3-4.9,2.3-4.9v-154C252.6,52.2,252.7,49.3,250,47.3z"/>
	<path fill="#FFFFFF" d="M436.1,47.7c-2.9-2.1-4.5-2-4.5-2h-36.3c0,0-3.7,0-5.9,1.8c-1.6,1.4-2.6,2.9-2.6,2.9l-35.1,57.8
		c0,0-1.3,2-2,2c-0.8,0-1.9-2-1.9-2l-35.1-57.8c0,0-1-1.6-2.6-2.9c-2.2-1.8-5.9-1.8-5.9-1.8h-36.3c0,0-1.6-0.1-4.5,2
		c-2.7,2-2.7,4.9-2.7,4.9v154c0,0,0,2.4,2.3,4.9c2.1,2.2,4.8,2.1,4.8,2.1h31.4c0,0,1.8,0.1,4.7-2.2c2.4-1.9,2.3-4.7,2.3-4.7v-89.1
		l36.3,58c0,0,3.8,6.3,7.2,6.4v0c3.4-0.1,7.2-6.4,7.2-6.4l36.3-58v89.1c0,0-0.2,2.8,2.3,4.7c2.9,2.3,4.7,2.2,4.7,2.2h31.4
		c0,0,2.8,0.1,4.8-2.1c2.3-2.5,2.3-4.9,2.3-4.9v-154C438.8,52.6,438.9,49.6,436.1,47.7z"/>
	
		<line fill="#0072CE" stroke="#9B9B9C" stroke-width="14.0725" stroke-linecap="round" stroke-miterlimit="10" x1="42" y1="144.3" x2="107.1" y2="144.3"/>
	
		<line fill="#0072CE" stroke="#9B9B9C" stroke-width="14.0725" stroke-linecap="round" stroke-miterlimit="10" x1="42" y1="168.6" x2="107.1" y2="168.6"/>
	
		<line fill="none" stroke="#FF5800" stroke-width="14.0725" stroke-linecap="round" stroke-miterlimit="10" x1="42" y1="192.8" x2="107.1" y2="192.8"/>
	<path fill="#FFFFFF" d="M625.2,206.2L559.8,50.9c0,0-1.3-2.8-4.7-5c-3.5-2.1-5.3-2-5.3-2h-30c0,0-1.9-0.1-5.3,2
		c-3.5,2.1-4.7,5-4.7,5l-65.4,155.3c0,0-1,2.4,0.3,4.9c1.1,2.2,3.9,2.1,3.9,2.1h31.4c0,0,2.3,0,5.7-2.2c3.2-2.1,4.3-4.7,4.3-4.7
		l9.7-23.1H570l9.7,23.1c0,0,1.1,2.7,4.3,4.7c3.4,2.2,5.7,2.2,5.7,2.2H621c0,0,2.8,0.1,3.9-2.1C626.2,208.6,625.2,206.2,625.2,206.2
		z M552.8,144.2c-0.5,0.7-2.7,0.5-2.7,0.5l-30.7,0c0,0-1.9,0.2-2.6-0.7c-0.7-0.9,0.6-3.5,0.6-3.5l15.3-38.8c0,0,0.8-2.6,2.1-2.6
		c1.2,0,1.7,2.2,1.7,2.2l15.3,39.2C551.8,140.6,553.3,143.4,552.8,144.2z"/>
</g>
</svg>
