<?xml version="1.0" encoding="utf-8"?>
<!-- Generator: Adobe Illustrator 16.0.3, SVG Export Plug-In . SVG Version: 6.00 Build 0)  -->
<!DOCTYPE svg PUBLIC "-//W3C//DTD SVG 1.0//EN" "http://www.w3.org/TR/2001/REC-SVG-20010904/DTD/svg10.dtd">
<svg version="1.0" id="Layer_1" xmlns="http://www.w3.org/2000/svg" xmlns:xlink="http://www.w3.org/1999/xlink" x="0px" y="0px"
	 width="367.6px" height="120.532px" viewBox="0 0 367.6 120.532" enable-background="new 0 0 367.6 120.532" xml:space="preserve">
<rect y="82.384" fill="#FFD400" width="75.454" height="7.725"/>
<path d="M24.729,70.584c-2.309,6.479-5.352,8.582-11.486,8.582c-2.098,0-4.191-0.412-6.066-1.16v-7.607
	c1.339,0.541,3.361,1.093,5.389,1.093c2.722,0,3.873-1.385,3.873-3.149c0-0.692-0.254-1.41-0.811-2.832
	C15.077,64.085,2.552,32.126,2.552,32.126h9.287l9.045,26.827h0.115l8.03-26.827h8.891L24.729,70.584z M40.645,32.126h8.513v3.002
	h0.141c2.58-2.37,6.309-3.834,10.492-3.834c8.937,0,15.663,8.301,15.663,18.489c0,9.376-5.526,18.493-16.648,18.493
	c-4.458,0-8.071-1.569-9.648-3.505v13.967h-8.513V32.126z M66.521,49.783c-0.069-5.094-2.402-10.679-8.82-10.679
	c-6.42,0-8.751,5.585-8.825,10.679c0.073,5.092,2.404,10.678,8.825,10.678C64.119,60.461,66.452,54.875,66.521,49.783z"/>
<g>
	<path d="M86.83,56.568c0.847,1.296,3.489,5.333,10.914,5.333c1.246,0,2.542-0.1,3.788-0.599c2.542-1.046,2.99-2.84,2.99-4.036
		c0-2.243-1.545-3.04-2.642-3.488c-0.797-0.299-0.897-0.35-4.086-1.097l-4.236-0.897c-2.243-0.548-3.339-0.797-4.436-1.245
		c-1.595-0.648-5.93-2.791-5.93-8.622c0-6.678,5.631-10.964,13.904-10.964c7.575,0,11.662,3.738,14.153,7.127l-5.382,4.036
		c-1.196-1.744-3.488-5.232-9.12-5.232c-3.539,0-6.628,1.595-6.628,4.286c0,2.99,3.289,3.588,6.479,4.186l3.638,0.798
		c4.734,0.997,11.412,2.94,11.412,10.465c0,8.074-7.475,11.313-14.95,11.313c-1.944,0-4.136-0.2-6.279-0.798
		c-2.342-0.697-6.479-2.392-9.12-6.678L86.83,56.568z"/>
	<path d="M140.058,61.452c-3.089,4.137-7.076,6.329-12.16,6.329c-6.528,0-12.808-4.136-12.808-13.306
		c0-8.372,5.382-13.106,12.409-13.106c6.578,0,9.319,3.937,9.817,4.685c2.043,2.891,2.492,7.226,2.542,9.718h-18.439
		c0.698,3.937,3.14,6.18,7.077,6.18c4.086,0,5.731-2.393,6.479-3.438L140.058,61.452z M133.28,51.386
		c-0.548-3.887-2.94-5.232-5.582-5.232c-3.189,0-5.382,1.844-6.08,5.232H133.28z"/>
	<path d="M143.849,49.442c0.1-1.246,0.199-2.292,0.997-3.737c2.392-4.336,8.323-4.336,9.917-4.336c2.392,0,5.282,0.299,7.475,1.595
		c2.94,1.794,2.99,4.137,2.99,6.827v13.206c0,1.895,0,2.542,1.096,4.037h-7.077c-0.05-0.598-0.149-1.595-0.149-1.943
		c-1.295,1.096-3.937,2.541-7.375,2.541c-5.631,0-9.02-3.488-9.02-7.773c0-1.246,0.299-2.393,0.797-3.39
		c1.794-3.588,5.631-4.385,8.023-4.834c5.133-1.046,5.532-1.146,7.724-1.844c0-1.246-0.1-3.787-4.236-3.787
		c-2.492,0-3.837,0.797-4.435,1.595c-0.648,0.797-0.598,1.495-0.598,2.192L143.849,49.442z M159.248,54.625
		c-1.196,0.599-2.542,1.047-5.232,1.495c-2.143,0.299-4.983,0.798-4.983,3.438c0,1.944,1.645,2.94,4.037,2.94
		c3.04,0,5.183-1.396,5.831-2.891c0.349-0.747,0.349-1.495,0.349-2.242V54.625z"/>
	<path d="M177.391,42.116v3.539c0.748-1.296,2.392-4.236,7.974-4.087v6.13c-1.295,0.05-3.538,0.1-5.382,1.495
		c-2.542,1.943-2.591,4.485-2.591,8.621v9.22h-5.781V42.116H177.391z"/>
	<path d="M204.265,50.938c-0.449-1.645-2.193-4.236-5.631-4.236s-6.18,2.741-6.18,7.725c0,4.485,2.342,7.774,6.279,7.774
		c3.788,0,5.233-2.891,5.98-4.884l5.133,2.691c-1.943,5.382-6.877,7.773-11.213,7.773c-6.927,0-12.359-5.332-12.359-13.206
		c0-7.625,5.482-13.206,12.559-13.206c6.279,0,9.469,4.187,10.765,7.076L204.265,50.938z"/>
	<path d="M218.083,31.851v12.808c1.894-1.894,4.485-3.289,7.924-3.289c3.09,0,5.482,1.196,6.828,2.691
		c2.043,2.192,2.093,4.734,2.093,7.574v15.399h-5.88V53.329c-0.1-2.242-0.1-2.79-0.398-3.538c-0.2-0.498-1.047-2.741-4.336-2.741
		c-3.837,0-5.631,3.09-6.03,4.535c-0.2,0.798-0.2,1.196-0.2,3.987v11.462h-5.98V31.851H218.083z"/>
	<path d="M116.682,77.226v35.184h-6.429l0.598-28.904l-7.575,28.904h-5.93l-7.625-28.904l0.648,28.904H83.94V77.226h9.568
		l6.877,26.113l6.728-26.113H116.682z"/>
	<path d="M123.065,94.817c0.1-1.246,0.199-2.292,0.997-3.737c2.392-4.336,8.323-4.336,9.917-4.336c2.392,0,5.282,0.299,7.475,1.595
		c2.94,1.794,2.99,4.137,2.99,6.827v13.206c0,1.895,0,2.542,1.096,4.037h-7.077c-0.05-0.598-0.149-1.595-0.149-1.943
		c-1.295,1.096-3.937,2.541-7.375,2.541c-5.631,0-9.02-3.488-9.02-7.773c0-1.246,0.299-2.393,0.797-3.39
		c1.794-3.588,5.631-4.385,8.023-4.834c5.133-1.046,5.532-1.146,7.724-1.844c0-1.246-0.1-3.787-4.236-3.787
		c-2.492,0-3.837,0.797-4.435,1.595c-0.648,0.797-0.598,1.495-0.598,2.192L123.065,94.817z M138.464,100
		c-1.196,0.599-2.542,1.047-5.232,1.495c-2.143,0.299-4.983,0.798-4.983,3.438c0,1.944,1.645,2.94,4.037,2.94
		c3.04,0,5.183-1.396,5.831-2.891c0.349-0.747,0.349-1.495,0.349-2.242V100z"/>
	<path d="M156.607,87.491v3.539c0.748-1.296,2.392-4.236,7.974-4.087v6.13c-1.295,0.05-3.538,0.1-5.382,1.495
		c-2.542,1.943-2.591,4.485-2.591,8.621v9.22h-5.781V87.491H156.607z"/>
	<path d="M174.4,77.226V97.01l9.718-9.519h7.625l-9.519,9.519l10.465,15.399h-7.276l-7.525-11.163l-3.489,3.438v7.725h-5.93V77.226
		H174.4z"/>
	<path d="M218.956,106.827c-3.089,4.137-7.076,6.329-12.16,6.329c-6.528,0-12.808-4.136-12.808-13.306
		c0-8.372,5.382-13.106,12.409-13.106c6.578,0,9.319,3.937,9.817,4.685c2.043,2.891,2.492,7.226,2.542,9.718h-18.439
		c0.698,3.937,3.14,6.18,7.077,6.18c4.086,0,5.731-2.393,6.479-3.438L218.956,106.827z M212.178,96.761
		c-0.548-3.887-2.94-5.232-5.582-5.232c-3.189,0-5.382,1.844-6.08,5.232H212.178z"/>
	<path d="M230.122,91.777v11.263c0,3.09,0,4.436,2.841,4.436c0.897,0,1.645-0.05,2.492-0.299v5.033
		c-1.794,0.299-2.99,0.398-4.335,0.398c-1.246,0-5.432,0-6.579-3.04c-0.398-0.996-0.398-2.591-0.398-5.083V91.777h-3.638v-4.286
		h3.638v-8.82h5.98v8.82h5.333v4.286H230.122z"/>
	<path d="M239.144,87.491h5.931v2.293c0.947-0.997,2.94-3.04,6.827-3.04c7.326,0,11.312,6.578,11.312,13.455
		c0,7.426-4.635,12.957-11.312,12.957c-3.438,0-5.582-1.645-6.827-2.79v10.166h-5.931V87.491z M251.104,107.525
		c2.891,0,6.03-1.993,6.03-7.625c0-6.229-4.336-7.425-6.13-7.425c-2.741,0-5.88,1.993-5.98,7.325
		C244.925,104.934,247.766,107.525,251.104,107.525z"/>
	<path d="M274.231,77.226v35.184h-6.03V77.226H274.231z"/>
	<path d="M279.864,94.817c0.1-1.246,0.199-2.292,0.997-3.737c2.392-4.336,8.323-4.336,9.917-4.336c2.392,0,5.282,0.299,7.475,1.595
		c2.94,1.794,2.99,4.137,2.99,6.827v13.206c0,1.895,0,2.542,1.096,4.037h-7.077c-0.05-0.598-0.149-1.595-0.149-1.943
		c-1.295,1.096-3.937,2.541-7.375,2.541c-5.631,0-9.02-3.488-9.02-7.773c0-1.246,0.299-2.393,0.797-3.39
		c1.794-3.588,5.631-4.385,8.023-4.834c5.133-1.046,5.532-1.146,7.724-1.844c0-1.246-0.1-3.787-4.236-3.787
		c-2.492,0-3.837,0.797-4.436,1.595c-0.647,0.797-0.598,1.495-0.598,2.192L279.864,94.817z M295.263,100
		c-1.196,0.599-2.542,1.047-5.232,1.495c-2.143,0.299-4.983,0.798-4.983,3.438c0,1.944,1.645,2.94,4.037,2.94
		c3.04,0,5.183-1.396,5.831-2.891c0.349-0.747,0.349-1.495,0.349-2.242V100z"/>
	<path d="M323.623,96.312c-0.449-1.645-2.193-4.236-5.632-4.236s-6.18,2.741-6.18,7.725c0,4.485,2.342,7.774,6.279,7.774
		c3.787,0,5.232-2.891,5.98-4.884l5.133,2.691c-1.943,5.382-6.877,7.773-11.213,7.773c-6.927,0-12.359-5.332-12.359-13.206
		c0-7.625,5.482-13.206,12.559-13.206c6.279,0,9.469,4.187,10.765,7.076L323.623,96.312z"/>
	<path d="M356.019,106.827c-3.09,4.137-7.077,6.329-12.16,6.329c-6.528,0-12.808-4.136-12.808-13.306
		c0-8.372,5.382-13.106,12.409-13.106c6.578,0,9.319,3.937,9.817,4.685c2.043,2.891,2.492,7.226,2.542,9.718H337.38
		c0.697,3.937,3.14,6.18,7.076,6.18c4.087,0,5.731-2.393,6.479-3.438L356.019,106.827z M349.241,96.761
		c-0.548-3.887-2.939-5.232-5.581-5.232c-3.189,0-5.382,1.844-6.08,5.232H349.241z"/>
</g>
<g>
	<path d="M357.203,90.192l0.674-0.059c0.031,0.27,0.105,0.491,0.222,0.664c0.116,0.174,0.298,0.313,0.543,0.42
		c0.246,0.106,0.522,0.16,0.829,0.16c0.271,0,0.513-0.04,0.721-0.121c0.209-0.081,0.363-0.192,0.467-0.334
		c0.101-0.141,0.152-0.295,0.152-0.462c0-0.169-0.05-0.316-0.147-0.442c-0.099-0.127-0.261-0.233-0.486-0.319
		c-0.145-0.056-0.465-0.144-0.961-0.263c-0.495-0.119-0.842-0.231-1.041-0.337c-0.258-0.135-0.45-0.303-0.577-0.502
		c-0.126-0.2-0.188-0.424-0.188-0.672c0-0.272,0.077-0.527,0.231-0.764c0.155-0.237,0.381-0.417,0.678-0.54
		c0.297-0.122,0.627-0.184,0.99-0.184c0.399,0,0.753,0.064,1.058,0.193c0.307,0.129,0.541,0.318,0.705,0.568
		c0.165,0.25,0.253,0.534,0.266,0.851l-0.686,0.052c-0.036-0.342-0.161-0.599-0.374-0.773c-0.212-0.174-0.524-0.261-0.939-0.261
		c-0.432,0-0.747,0.079-0.944,0.237c-0.198,0.158-0.296,0.349-0.296,0.572c0,0.193,0.069,0.354,0.21,0.479
		c0.137,0.125,0.495,0.253,1.077,0.385c0.579,0.131,0.978,0.246,1.193,0.344c0.314,0.145,0.546,0.328,0.696,0.55
		c0.149,0.223,0.225,0.479,0.225,0.768c0,0.287-0.083,0.558-0.247,0.812c-0.165,0.254-0.401,0.452-0.709,0.593
		c-0.309,0.142-0.654,0.212-1.04,0.212c-0.488,0-0.897-0.071-1.228-0.214c-0.33-0.142-0.589-0.356-0.775-0.642
		C357.31,90.877,357.212,90.554,357.203,90.192z"/>
	<path d="M362.451,91.927V86.53h1.075l1.277,3.82c0.118,0.356,0.203,0.622,0.258,0.799c0.062-0.196,0.157-0.484,0.287-0.865
		l1.292-3.754h0.96v5.396h-0.688V87.41l-1.568,4.517H364.7l-1.561-4.594v4.594H362.451z"/>
</g>
</svg>
