<?xml version="1.0" encoding="utf-8"?>
<!-- Generator: Adobe Illustrator 16.0.3, SVG Export Plug-In . SVG Version: 6.00 Build 0)  -->
<!DOCTYPE svg PUBLIC "-//W3C//DTD SVG 1.1//EN" "http://www.w3.org/Graphics/SVG/1.1/DTD/svg11.dtd">
<svg version="1.1" id="Layer_1" xmlns="http://www.w3.org/2000/svg" xmlns:xlink="http://www.w3.org/1999/xlink" x="0px" y="0px"
	 width="231.79px" height="243.541px" viewBox="0 0 231.79 243.541" enable-background="new 0 0 231.79 243.541"
	 xml:space="preserve">
<g>
	<path d="M123.34,212.516c-17.326-2.129-29.645-17.898-27.517-35.225c2.125-17.327,17.895-29.638,35.225-27.509
		c17.318,2.117,29.637,17.89,27.507,35.216C156.428,202.317,140.659,214.645,123.34,212.516 M168.638,173.499
		c-0.721-3.907-1.992-7.655-3.726-11.14l7.823-12.331c-2.073-3.018-4.452-5.826-7.085-8.389l-14.518,4.834
		c-2.571-1.784-5.361-3.291-8.335-4.482l-3.25-14.542c-1.846-0.419-3.725-0.75-5.646-0.989c-1.963-0.24-3.916-0.374-5.852-0.405
		l-6.686,13.353c-3.141,0.434-6.189,1.227-9.089,2.327l-12.902-8.195c-3.19,1.861-6.19,4.034-8.949,6.49l4.622,13.879
		c-2.479,2.915-4.578,6.187-6.204,9.744l-15.096,3.372c-0.659,2.461-1.156,4.986-1.477,7.593c-0.08,0.631-0.141,1.261-0.195,1.891
		l13.023,6.513c0.218,5.037,1.335,9.873,3.207,14.348l-8.237,12.979c1.423,2.311,3.012,4.51,4.754,6.583l13.982-4.658
		c4.155,3.796,9.091,6.79,14.591,8.69l3.284,14.694c1.23,0.237,2.479,0.443,3.741,0.598c1.227,0.146,2.44,0.253,3.646,0.326
		l6.73-13.453c5.83-0.493,11.373-2.195,16.346-4.882l12.458,7.906c2.167-1.572,4.225-3.31,6.156-5.18l-4.847-14.56
		c2.948-3.933,5.24-8.415,6.681-13.311l14.207-3.168c0.101-0.612,0.182-1.217,0.264-1.837c0.318-2.584,0.444-5.141,0.401-7.68
		L168.638,173.499z"/>
	<path fill="#FDE500" d="M47.54,107.5c2.318-12.886,14.641-21.452,27.525-19.136c12.884,2.317,21.451,14.639,19.133,27.524
		c-2.313,12.883-14.638,21.449-27.523,19.128C53.791,132.702,45.225,120.382,47.54,107.5 M28.847,109.07
		c-0.145,2.499-0.073,4.974,0.218,7.401l11.627,4.023c1.189,3.967,3.142,7.646,5.72,10.837l-3.049,12.003
		c1.871,1.612,3.892,3.079,6.049,4.357l10.25-6.726c1.821,0.691,3.732,1.241,5.722,1.594c1.987,0.358,3.967,0.511,5.912,0.495
		l7.238,9.835c2.483-0.45,4.898-1.126,7.231-2.017l1.313-12.233c3.526-2.096,6.638-4.859,9.13-8.161l12.167,0.271
		c1.133-2.203,2.076-4.529,2.813-6.961l-8.807-8.892c0.435-3.929,0.124-7.79-0.832-11.429l7.741-9.406
		c-1.156-2.55-2.565-4.969-4.199-7.239l-12.497,1.594c-2.194-2.068-4.705-3.833-7.46-5.215l-2.339-12.182
		c-1.441-0.421-2.918-0.775-4.428-1.048c-1.469-0.263-2.928-0.444-4.38-0.553l-6.443,10.62c-3.068,0.332-6.032,1.116-8.815,2.287
		l-11.25-5.892c-2.298,1.535-4.443,3.294-6.403,5.256l4.02,11.626c-2.164,3.078-3.8,6.591-4.763,10.421L28.847,109.07z"/>
	<path d="M141,93.763c-18.48-2.269-31.619-19.088-29.353-37.566c2.272-18.481,19.091-31.621,37.571-29.35
		c18.483,2.268,31.615,19.088,29.349,37.566C176.302,82.894,159.484,96.032,141,93.763 M197.775,61.168l-10.599-4.082
		c-0.142-1.929-0.411-3.834-0.801-5.697l9.024-6.808c-1.086-3.441-2.516-6.743-4.245-9.862l-11.125,1.751
		c-1.07-1.585-2.254-3.096-3.532-4.525l4.363-10.321c-2.623-2.43-5.504-4.605-8.616-6.471l-8.684,7.027
		c-1.719-0.831-3.502-1.552-5.347-2.15l-1.366-11.076c-1.737-0.397-3.513-0.709-5.317-0.93c-1.812-0.222-3.611-0.351-5.396-0.385
		l-4.006,10.416c-1.934,0.137-3.83,0.404-5.699,0.797L129.7,9.928c-3.462,1.059-6.791,2.473-9.928,4.197l1.742,11.071
		c-1.59,1.074-3.096,2.255-4.52,3.533l-10.373-4.387c-2.438,2.605-4.622,5.464-6.499,8.545l7.104,8.786
		c-0.832,1.71-1.553,3.493-2.152,5.333l-11.277,1.396c-0.417,1.79-0.741,3.621-0.971,5.483c-0.207,1.712-0.332,3.421-0.373,5.111
		l10.646,4.101c0.132,1.93,0.404,3.83,0.792,5.696l-9.164,6.919c1.044,3.411,2.432,6.693,4.121,9.788l11.388-1.789
		c1.078,1.585,2.257,3.095,3.533,4.523l-4.511,10.663c2.578,2.398,5.398,4.544,8.436,6.397l9.012-7.292
		c1.719,0.832,3.504,1.548,5.338,2.147l1.425,11.53c1.71,0.382,3.448,0.689,5.218,0.907c1.772,0.217,3.529,0.345,5.28,0.381
		l4.172-10.839c1.925-0.14,3.83-0.405,5.699-0.799l6.983,9.262c3.399-1.065,6.646-2.463,9.731-4.169l-1.8-11.439
		c1.588-1.074,3.097-2.253,4.528-3.533l10.612,4.496c2.387-2.599,4.522-5.445,6.368-8.504l-7.221-8.929
		c0.835-1.715,1.555-3.497,2.154-5.338l11.318-1.399c0.372-1.655,0.658-3.337,0.879-5.051
		C197.621,64.859,197.747,63.008,197.775,61.168"/>
</g>
</svg>
