<?xml version="1.0" encoding="utf-8"?>
<!-- Generator: Adobe Illustrator 16.0.3, SVG Export Plug-In . SVG Version: 6.00 Build 0)  -->
<!DOCTYPE svg PUBLIC "-//W3C//DTD SVG 1.1//EN" "http://www.w3.org/Graphics/SVG/1.1/DTD/svg11.dtd">
<svg version="1.1" id="Layer_1" xmlns="http://www.w3.org/2000/svg" xmlns:xlink="http://www.w3.org/1999/xlink" x="0px" y="0px"
	 width="220.762px" height="220.762px" viewBox="0 0 220.762 220.762" enable-background="new 0 0 220.762 220.762"
	 xml:space="preserve">
<g>
	<circle fill="none" stroke="#E6E7E8" stroke-width="14" stroke-miterlimit="10" cx="110.381" cy="110.381" r="100.5"/>
	<g>
		<path d="M170.368,134.428v2.748c0,3.303-2.694,5.993-6.012,5.993H56.412c-3.312,0-6.009-2.69-6.009-5.993v-2.748H170.368z
			 M62.682,70.268l0.04-0.855c0.156-3.437,3.03-6.135,6.544-6.135h81.946c3.587,0,6.404,2.636,6.552,6.139l0.042,0.852H62.682z
			 M157.771,127.727H62.713V74.204h95.058V127.727z M164.497,126.838V69.591c0-7.202-5.915-13.059-13.19-13.059H69.164
			c-7.27,0-13.186,5.857-13.186,13.059v57.248H42.817v10.338c0,7.484,6.099,13.573,13.595,13.573h107.944
			c7.495,0,13.589-6.089,13.589-13.573v-10.338H164.497z"/>
		<path d="M105.326,139.732h10.121c0.608,0,1.111-0.382,1.111-0.861c0-0.467-0.503-0.857-1.111-0.857h-10.121
			c-0.611,0-1.103,0.391-1.103,0.857C104.224,139.35,104.716,139.732,105.326,139.732"/>
		<path fill="none" stroke="#000000" stroke-width="1.8832" stroke-miterlimit="10" d="M105.326,139.732h10.121
			c0.608,0,1.111-0.382,1.111-0.861c0-0.467-0.503-0.857-1.111-0.857h-10.121c-0.611,0-1.103,0.391-1.103,0.857
			C104.224,139.35,104.716,139.732,105.326,139.732z"/>
	</g>
</g>
</svg>
