<?xml version="1.0" encoding="utf-8"?>
<!-- Generator: Adobe Illustrator 16.0.3, SVG Export Plug-In . SVG Version: 6.00 Build 0)  -->
<!DOCTYPE svg PUBLIC "-//W3C//DTD SVG 1.1//EN" "http://www.w3.org/Graphics/SVG/1.1/DTD/svg11.dtd">
<svg version="1.1" id="Layer_2" xmlns="http://www.w3.org/2000/svg" xmlns:xlink="http://www.w3.org/1999/xlink" x="0px" y="0px"
	 width="231.79px" height="243.541px" viewBox="0 0 231.79 243.541" enable-background="new 0 0 231.79 243.541"
	 xml:space="preserve">
<path fill="#FFFFFF" d="M115.896,207.987c-47.269,0-85.716-38.452-85.716-85.719c0-47.266,38.447-85.716,85.716-85.716
	c47.267,0,85.715,38.45,85.715,85.716C201.612,169.535,163.164,207.987,115.896,207.987 M115.896,21.77
	c-55.417,0-100.5,45.083-100.5,100.499c0,55.411,45.083,100.499,100.5,100.499c55.412,0,100.5-45.088,100.5-100.499
	C216.396,66.854,171.308,21.77,115.896,21.77"/>
<path fill="#FFFFFF" d="M115.896,170.465c-26.577,0-48.192-21.622-48.192-48.196c0-26.576,21.615-48.196,48.192-48.196
	c26.572,0,48.193,21.62,48.193,48.196C164.089,148.843,142.468,170.465,115.896,170.465 M115.896,58.219
	c-35.315,0-64.051,28.735-64.051,64.05c0,35.315,28.736,64.046,64.051,64.046s64.044-28.73,64.044-64.046
	C179.941,86.954,151.211,58.219,115.896,58.219"/>
<path fill="#FFE600" d="M115.896,139.203c-9.34,0-16.934-7.592-16.934-16.935c0-9.339,7.594-16.937,16.934-16.937
	c9.341,0,16.932,7.598,16.932,16.937C132.829,131.611,125.238,139.203,115.896,139.203 M115.896,93.242
	c-16.004,0-29.024,13.026-29.024,29.027c0,16.005,13.02,29.027,29.024,29.027c16.003,0,29.018-13.022,29.018-29.027
	C144.915,106.268,131.9,93.242,115.896,93.242"/>
</svg>
