<?xml version="1.0" encoding="utf-8"?>
<!-- Generator: Adobe Illustrator 16.0.3, SVG Export Plug-In . SVG Version: 6.00 Build 0)  -->
<!DOCTYPE svg PUBLIC "-//W3C//DTD SVG 1.0//EN" "http://www.w3.org/TR/2001/REC-SVG-20010904/DTD/svg10.dtd">
<svg version="1.0" id="Layer_1" xmlns="http://www.w3.org/2000/svg" xmlns:xlink="http://www.w3.org/1999/xlink" x="0px" y="0px"
	 width="231.79px" height="243.541px" viewBox="0 0 231.79 243.541" enable-background="new 0 0 231.79 243.541"
	 xml:space="preserve">
<g>
	<path fill="none" stroke="#FFE600" stroke-width="18.938" stroke-miterlimit="10" d="M199.341,123.743
		c0,38.328-31.066,69.396-69.395,69.396c-38.323,0-69.387-31.068-69.387-69.396c0-38.328,31.064-69.392,69.387-69.392
		C168.275,54.352,199.341,85.416,199.341,123.743z"/>
	<path fill="none" d="M8.096,207.983c0,3.885,3.17,7.067,7.082,7.067h109.546c3.894,0,7.081-3.183,7.081-7.067v-3.776H8.096V207.983
		z"/>
	<rect x="21.455" y="143.938" fill="#FFFFFF" width="96.693" height="54.53"/>
	<path fill="#FFFFFF" d="M118.142,139.054c-0.154-3.562-3.021-6.249-6.67-6.249H28.115c-3.57,0-6.49,2.738-6.654,6.247l-0.037,0.874
		h96.758L118.142,139.054z"/>
	<path stroke="#000000" stroke-width="2" stroke-miterlimit="10" d="M123.877,198.469v-59.124c0-6.76-5.558-12.273-12.405-12.273
		H28.115c-6.831,0-12.397,5.514-12.397,12.273v59.124H2.365v9.515c0,7.06,5.749,12.787,12.813,12.787h109.546
		c7.062,0,12.81-5.728,12.81-12.787v-9.515H123.877z M19.353,134.797c0-2.286,1.851-4.131,4.122-4.131h93.244
		c2.284,0,4.128,1.845,4.128,4.131v63.222c0,2.273-1.843,4.114-4.128,4.114H23.474c-2.27,0-4.123-1.84-4.123-4.114v-63.222H19.353z
		 M131.807,207.983c0,3.885-3.188,7.067-7.083,7.067H15.178c-3.911,0-7.082-3.183-7.082-7.067v-3.776h123.709v3.776H131.807z"/>
	<path d="M23.474,202.133h93.244c2.284,0,4.127-1.841,4.127-4.114v-63.223c0-2.287-1.842-4.13-4.127-4.13H23.474
		c-2.27,0-4.123,1.843-4.123,4.13v63.223C19.353,200.292,21.204,202.133,23.474,202.133z M118.148,198.469H21.455v-54.53h96.693
		V198.469z M21.461,139.052c0.164-3.509,3.084-6.247,6.654-6.247h83.357c3.649,0,6.514,2.688,6.67,6.249l0.04,0.872H21.424
		L21.461,139.052z"/>
	<path fill="#FFFFFF" d="M226.583,163.679c0,2.266-1.835,4.125-4.11,4.125h-47.821c-2.271,0-4.128-1.859-4.128-4.125V97.526
		c0-2.269,1.856-4.12,4.128-4.12h47.821c2.273,0,4.11,1.851,4.11,4.12V163.679z"/>
	<g>
		<path stroke="#000000" stroke-miterlimit="10" d="M167.55,100.671v59.993c0,5.561,4.348,10.092,9.67,10.092h42.531
			c5.329,0,9.673-4.531,9.673-10.092v-59.993c0-5.568-4.344-10.082-9.673-10.082H177.22C171.898,90.59,167.55,95.104,167.55,100.671
			z M225.211,100.496h-53.443c0.073-3.067,2.49-5.527,5.454-5.527h42.53C222.723,94.968,225.133,97.43,225.211,100.496z
			 M171.759,160.521h53.46v0.144c0,3.165-2.442,5.706-5.467,5.706h-42.53c-3.014,0-5.463-2.541-5.463-5.706V160.521z
			 M171.759,103.415h53.46v53.264h-53.46V103.415z"/>
	</g>
	<path fill="#FFFFFF" d="M138.755,89.229c0,2.281-1.837,4.129-4.13,4.129H108.45c-2.282,0-4.122-1.848-4.122-4.129V30.99
		c0-2.27,1.838-4.123,4.122-4.123h26.176c2.293,0,4.13,1.852,4.13,4.123V89.229z"/>
	<g>
		<g>
			<g>
				<path d="M116.849,84.506c0,2.208,1.782,4.003,3.996,4.003c2.206,0,3.999-1.794,3.999-4.003c0-2.21-1.793-4.008-3.999-4.008
					C118.631,80.498,116.849,82.296,116.849,84.506z M118.654,84.506c0-1.208,0.991-2.189,2.191-2.189
					c1.211,0,2.181,0.981,2.181,2.189c0,1.202-0.972,2.168-2.181,2.168C119.645,86.675,118.654,85.708,118.654,84.506z"/>
			</g>
		</g>
		<g>
			<path stroke="#000000" stroke-width="0.5" stroke-miterlimit="10" d="M101.053,35.008v48.49c0,6.523,5.302,11.817,11.822,11.817
				h15.939c6.533,0,11.837-5.293,11.837-11.817v-48.49c0-6.512-5.304-11.818-11.837-11.818h-15.939
				C106.355,23.188,101.053,28.496,101.053,35.008z M105.141,77.475h31.41v6.023c0,4.258-3.457,7.725-7.736,7.725h-15.939
				c-4.267,0-7.734-3.467-7.734-7.725V77.475z M105.141,36.763h31.41V75.2h-31.41V36.763z M105.127,34.491l0.133-0.784
				c0.644-3.73,3.845-6.431,7.616-6.431h15.939c3.772,0,6.988,2.7,7.628,6.431l0.124,0.784H105.127z"/>
			<path stroke="#000000" stroke-width="0.5" stroke-miterlimit="10" d="M128.815,95.735h-15.939
				c-6.748,0-12.241-5.487-12.241-12.238v-48.49c0-6.741,5.493-12.236,12.241-12.236h15.939c6.761,0,12.254,5.495,12.254,12.236
				v48.49C141.069,90.249,135.576,95.735,128.815,95.735z M112.875,23.608c-6.288,0-11.402,5.116-11.402,11.399v48.49
				c0,6.284,5.114,11.409,11.402,11.409h15.939c6.301,0,11.42-5.125,11.42-11.409v-48.49c0-6.283-5.119-11.399-11.42-11.399H112.875
				z M128.815,91.64h-15.939c-4.499,0-8.154-3.653-8.154-8.144v-6.431h32.248v6.431C136.968,87.987,133.324,91.64,128.815,91.64z
				 M105.559,77.892v5.605c0,4.032,3.276,7.317,7.317,7.317h15.939c4.032,0,7.32-3.285,7.32-7.317v-5.605H105.559z M136.968,75.62
				H104.72V36.342h32.248V75.62z M105.559,74.782h30.575V37.179h-30.575V74.782z M137.053,34.899h-32.427l0.221-1.267
				c0.675-3.921,4.054-6.775,8.029-6.775h15.939c3.977,0,7.351,2.854,8.022,6.775L137.053,34.899z M105.617,34.073h30.459
				l-0.046-0.302c-0.609-3.528-3.649-6.087-7.216-6.087h-15.939c-3.565,0-6.602,2.558-7.203,6.087L105.617,34.073z"/>
		</g>
	</g>
	<path d="M64.601,210.751h10.691c0.646,0,1.167-0.494,1.167-1.131c0-0.622-0.521-1.133-1.167-1.133H64.601
		c-0.639,0-1.161,0.511-1.161,1.133C63.44,210.257,63.962,210.751,64.601,210.751z"/>
</g>
</svg>
